﻿{
	"TownNPCHousingFailureReasons": {
		"TooCloseToWorldEdge": "もっと良い文章が必要だ！"
		,"RoomIsTooBig": "この部屋は大きすぎます。"
		,"RoomIsTooSmall": "この部屋は小さすぎます。"
		,"HoleInWallIsTooBig": "この部屋は壁が不足しています。"
		,"RoomCheckStartedInASolidTile": "これはブロックです！"
	}
	,"MerchantNames": {
		"Alfred": "アルフレッド"
		,"Barney": "バーニー"
		,"Calvin": "カルヴィン"
		,"Edmund": "エドモンド"
		,"Edwin": "エドウィン"
		,"Eugene": "ユージン"
		,"Frank": "フランク"
		,"Frederick": "フレデリック"
		,"Gilbert": "ギルバート"
		,"Gus": "ガス"
		,"Wilbur": "ウィルバー"
		,"Seymour": "シーモア"
		,"Louis": "ルイス"
		,"Humphrey": "ハンフリー"
		,"Harold": "ハロルド"
		,"Milton": "ミルトン"
		,"Mortimer": "モーティマー"
		,"Howard": "ハワード"
		,"Walter": "ウォルター"
		,"Isaac": "アイザック"
		,"Joseph": "ジョセフ"
		,"Kristian": "クリスチャン"
		,"Ralph": "ラルフ"
	}
	,"NurseNames": {
		"Molly": "モリー"
		,"Amy": "エミィ"
		,"Claire": "クレア"
		,"Emily": "エミリー"
		,"Katie": "ケイティ"
		,"Madeline": "マデリン"
		,"Katelyn": "カテリン"
		,"Emma": "エマ"
		,"Abigail": "アビゲイル"
		,"Carly": "カーリー"
		,"Jenna": "ジェナ"
		,"Heather": "ヘザー"
		,"Katherine": "キャサリン"
		,"Caitlin": "キャトリン"
		,"Kaitlin": "ケートリン"
		,"Holly": "ホリー"
		,"Kaitlyn": "ケイトリン"
		,"Hannah": "ハンナ"
		,"Kathryn": "キャスリーン"
		,"Lorraine": "ロレイン"
		,"Helen": "ヘレン"
		,"Kayla": "ケイラ"
		,"Lisa": "リサ"
		,"Allison": "アリソン"
	}
	,"ArmsDealerNames": {
		"DeShawn": "デショーン"
		,"DeAndre": "デアンドレ"
		,"Marquis": "マーキス"
		,"Darnell": "ダーネル"
		,"Terrell": "テレル"
		,"Malik": "マリク"
		,"Trevon": "トレボン"
		,"Tyrone": "タイロン"
		,"Willie": "ウィル"
		,"Dominique": "ドミニク"
		,"Demetrius": "デメトリウス"
		,"Reginald": "レジナルド"
		,"Jamal": "ジャマル"
		,"Maurice": "モーリス"
		,"Jalen": "ジェイレン"
		,"Darius": "ダリウス"
		,"Xavier": "ザビエル"
		,"Terrance": "テランス"
		,"Andre": "アンドレ"
		,"Dante": "ダンテ"
		,"Brimst": "ブリムスト"
		,"Bronson": "ブロンソン"
		,"Tony": "トニー"
		,"Darryl": "ダリル"
	}
	,"DryadNames": {
		"Alalia": "アレイリア"
		,"Alura": "アルラ"
		,"Ariella": "アリエラ"
		,"Caelia": "カエリア"
		,"Calista": "キャリスタ"
		,"Chryseis": "クリュセイス"
		,"Emerenta": "エメレンタ"
		,"Elysia": "エリシア"
		,"Evvie": "イヴィ"
		,"Faye": "フェイ"
		,"Felicitae": "フェリシタエ"
		,"Lunette": "ルネット"
		,"Nata": "ナタ"
		,"Nissa": "ニッサ"
		,"Tatiana": "タチアナ"
		,"Rosalva": "ロザルヴァ"
		,"Shea": "シェア"
		,"Tania": "タニア"
		,"Isis": "イシス"
		,"Celestia": "セレスティア"
		,"Xylia": "キシリア"
	}
	,"GuideNames": {
		"Joe": "ジョー"
		,"Connor": "コノア"
		,"Tanner": "タナー"
		,"Wyatt": "ワイアット"
		,"Cody": "コーディ"
		,"Levi": "リーヴァイ"
		,"Luke": "ルーク"
		,"Jack": "ジャック"
		,"Scott": "スコット"
		,"Logan": "ローガン"
		,"Cole": "コール"
		,"Asher": "アッシャー"
		,"Bradley": "ブラッドリー"
		,"Jacob": "ジェイコブ"
		,"Garrett": "ガレット"
		,"Dylan": "ディラン"
		,"Maxwell": "マクスウェル"
		,"Steve": "スティーブ"
		,"Brett": "ブレット"
		,"Andrew": "Andrew"
		,"Harley": "ハーレイ"
		,"Kyle": "カイル"
		,"Jake": "ジェイク"
		,"Ryan": "ライアン"
		,"Jeffrey": "ジェフリー"
		,"Seth": "セス"
		,"Marty": "マーティ"
		,"Brandon": "ブランドン"
		,"Zach": "ザック"
		,"Jeff": "ジェフ"
		,"Daniel": "ダニエル"
		,"Trent": "トレント"
		,"Kevin": "ケヴィン"
		,"Brian": "ブライアン"
		,"Colin": "コリン"
	}
	,"DemolitionistNames": {
		"Dolbere": "ドルベレ"
		,"Bazdin": "バッジン"
		,"Durim": "ドゥリム"
		,"Tordak": "トルダク"
		,"Garval": "ガーバー"
		,"Morthal": "モーサル"
		,"Oten": "オーテン"
		,"Dolgen": "ドルゲン"
		,"Gimli": "ギムリ"
		,"Gimut": "ギムト"
		,"Duerthen": "デュレセン"
		,"Beldin": "ベルディン"
		,"Jarut": "ジャルト"
		,"Ovbere": "オヴベア"
		,"Norkas": "ノーカス"
		,"Dolgrim": "ドルグリム"
		,"Boften": "ボフテン"
		,"Norsun": "ノーサン"
		,"Dias": "ディアス"
		,"Fikod": "フィコド"
		,"Urist": "ウリスト"
		,"Darur": "ダルール"
	}
	,"ClothierNames": {
		"Sebastian": "セバスチャン"
		,"Rupert": "ルパート"
		,"Clive": "クライブ"
		,"Nigel": "ナイジェル"
		,"Mervyn": "マーヴィン"
		,"Cedric": "セドリック"
		,"Pip": "ピップ"
		,"Cyril": "シリル"
		,"Fitz": "フィッツ"
		,"Lloyd": "ロイド"
		,"Arthur": "アーサー"
		,"Rodney": "ロドニー"
		,"Graham": "グラハム"
		,"Edward": "エドワード"
		,"Alfred": "アルフレド"
		,"Edmund": "エドマンド"
		,"Henry": "ヘンリー"
		,"Herald": "ヘラルド"
		,"Roland": "ローランド"
		,"Lincoln": "リンカン"
		,"Edgar": "エドガー"
		,"Eustace": "ユースタス"
		,"Benjamin": "ベンジャミン"
		,"James": "ジェームス"
		,"Rodrick": "ロドリック"
	}
	,"GoblinTinkererNames": {
		"Grodax": "グロダクス"
		,"Sarx": "サルコ"
		,"Xon": "ソン"
		,"Mrunok": "ムルノク"
		,"Nuxatk": "ヌーハルク"
		,"Tgerd": "トゲルト"
		,"Darz": "ダルツ"
		,"Smador": "スマドール"
		,"Stazen": "スタゼン"
		,"Mobart": "モーバート"
		,"Knogs": "ノグ"
		,"Tkanus": "ツカヌス"
		,"Negurk": "ネグルク"
		,"Nort": "ノート"
		,"Durnok": "ダーノク"
		,"Trogem": "トロジェム"
		,"Stezom": "ステゾム"
		,"Gnudar": "グヌーダー"
		,"Ragz": "ラグズ"
		,"Fahd": "ファハド"
		,"Xanos": "クサノス"
		,"Arback": "アーバック"
		,"Fjell": "フィエイル"
		,"Dalek": "ダーレク"
		,"Knub": "ナブ"
	}
	,"WizardNames": {
		"Dalamar": "ダラマー"
		,"Dulais": "デュライス"
		,"Elric": "エルリック"
		,"Arddun": "アルドゥン"
		,"Maelor": "マエラー"
		,"Leomund": "レオムンド"
		,"Hirael": "ハイラエル"
		,"Gwentor": "グウェンタ"
		,"Greum": "グレオム"
		,"Gearroid": "ガーロイド"
		,"Fizban": "フィズバン"
		,"Ningauble": "ニンガウブル"
		,"Seonag": "ショーナ"
		,"Sargon": "サルゴン"
		,"Merlyn": "マーリン"
		,"Magius": "マギウス"
		,"Berwyn": "バーウィン"
		,"Arwyn": "アルウィン"
		,"Alasdair": "アラスター"
		,"Tagar": "タガー"
		,"Abram": "エイブラム"
		,"Xanadu": "ザナドゥ"
	}
	,"MechanicNames": {
		"Shayna": "シェイナ"
		,"Korrie": "コリー"
		,"Ginger": "ジンジャー"
		,"Brooke": "ブルック"
		,"Jenny": "ジェニー"
		,"Autumn": "オータム"
		,"Nancy": "ナンシー"
		,"Ella": "エラ"
		,"Kayla": "ケーラ"
		,"Selah": "セラ"
		,"Sophia": "ソフィア"
		,"Marshanna": "マルシャンナ"
		,"Lauren": "ローレン"
		,"Trisha": "トリシャ"
		,"Shirlena": "シルレナ"
		,"Sheena": "シーナ"
		,"Ellen": "エレン"
		,"Amy": "エイミー"
		,"Dawn": "ダウン"
		,"Susana": "スサナ"
		,"Meredith": "メレディス"
		,"Selene": "セレーネ"
		,"Terra": "テラ"
		,"Sally": "サリー"
	}
	,"TruffleNames": {
		"Reishi": "レイシ"
		,"Maitake": "マイタケ"
		,"Chanterelle": "アンズタケ"
		,"Porcini": "ポルチーニ"
		,"Shimeji": "シメジ"
		,"Amanita": "テングタケ"
		,"Muscaria": "ベニテングタケ"
		,"Agaric": "ハラタケ"
		,"Cremini": "クレミニ"
		,"Morel": "アミガサタケ"
		,"Enoki": "エノキ"
		,"Shiitake": "シイタケ"
	}
	,"SteampunkerNames": {
		"Whitney": "Whitney"
		,"Verity": "ヴェリティ"
		,"Ada": "エイダ"
		,"Cornelia": "コーネリア"
		,"Lydia": "リディア"
		,"Leila": "レイラ"
		,"Minerva": "ミネルバ"
		,"Emeline": "エメリン"
		,"Cynthia": "シンシア"
		,"Fidelia": "フィデリア"
		,"Lilly": "リリー"
		,"Phoebe": "フィービー"
		,"Zylphia": "ジルフィア"
		,"Zelda": "ゼルダ"
		,"Selina": "セリーナ"
		,"Hope": "ホープ"
		,"Isabella": "イザベラ"
		,"Judith": "ジュディス"
		,"Savannah": "サバンナ"
		,"Vivian": "ヴィヴィアン"
	}
	,"DyeTraderNames": {
		"Abdosir": "アブドシル"
		,"Akbar": "アクバル"
		,"Bodashtart": "ボダシュタルト"
		,"Danel": "ダネル"
		,"Hanno": "ハンノ"
		,"Hiram": "ヒラム"
		,"Kanmi": "カンミ"
		,"Philosir": "フィロシル"
		,"Tabnit": "タブニット"
		,"Yutpan": "ユッパン"
		,"Ahirom": "アヒラム"
		,"Batnoam": "バトノアム"
		,"Sikarbaal": "シカルバアル"
		,"Hannibal": "ハンニバル"
		,"Yehomilk": "イェホミルク"
		,"Ahinadab": "アヒナダブ"
	}
	,"PartyGirlNames": {
		"Candy": "キャンディ"
		,"Isis": "アイシス"
		,"Trixy": "トリクシィ"
		,"Destiny": "デスティニー"
		,"Lexus": "レクサス"
		,"Bambi": "バンビ"
		,"Bailey": "ベイリー"
		,"Glitter": "グリッター"
		,"Sparkle": "スパークル"
		,"Paris": "パリ"
		,"Dazzle": "ダズル"
		,"Fantasy": "ファンタジー"
		,"Bunny": "バニー"
		,"Sugar": "シュガー"
		,"Fantasia": "ファンタジア"
		,"Star": "スター"
		,"Cherry": "チェリー"
	}
	,"CyborgNames": {
		"Alpha": "アルファ"
		,"Beta": "ベータ"
		,"Delta": "デルタ"
		,"Omega": "オメガ"
		,"Gamma": "ガンマ"
		,"Theta": "シータ"
		,"Kappa": "カッパ"
		,"Omicron": "オミクロン"
		,"Sigma": "シグマ"
		,"Upsilon": "ウプシロン"
		,"Phi": "ファイ"
		,"Zeta": "ゼータ"
		,"Lambda": "ラムダ"
		,"Nu": "ニュー"
		,"Ci": "カイ"
		,"Rho": "ロー"
		,"Fender": "フェンダー"
		,"T-3E0": "Ｔ-３Ｅ０"
		,"Niner-7": "Ｎｉｎｅｒ-７"
		,"A.N.D.Y.": "Ａ.Ｎ.Ｄ.Ｙ."
		,"Syn-X": "Ｓｙｎ-Ｘ"
		,"Mu": "ミュー"
	}
	,"PainterNames": {
		"Marco": "マルコ"
		,"Guido": "グイド"
		,"Enzo": "エンツォ"
		,"Martino": "マルティノ"
		,"Mauro": "マウロ"
		,"Lorenzo": "ロレンツォ"
		,"Ludo": "ルドー"
		,"Luciano": "ルチアーノ"
		,"Carlo": "カルロ"
		,"Bruno": "ブルーノ"
		,"Mario": "マリオ"
		,"Leonardo": "レオナルド"
		,"Raphael": "ラファエル"
		,"Luigi": "ルイージ"
		,"Luca": "ルカ"
		,"Darren": "ダレン"
		,"Esreadel": "エスラデル"
		,"Stefano": "ステファノ"
	}
	,"WitchDoctorNames": {
		"Abibe": "アビベ"
		,"Jamundi": "ハムンディ"
		,"U'wa": "ウ・ワ"
		,"Tairona": "タイロナ"
		,"Xirigua": "シリグァ"
		,"Zop'a": "ゾパ"
		,"Opuni": "オプニ"
		,"Kogi-ghi": "コギ=ギ"
		,"Konah": "コナー"
		,"Gboto": "グボト"
	}
	,"PirateNames": {
		"David": "デビッド"
		,"Red Beard": "赤ひげ"
		,"Jack": "ジャック"
		,"Black Beard": "黒ひげ"
		,"Captain Morgan": "モルガン船長"
		,"Wet Beard": "ウェットビアード"
		,"James T. Beard": "ジェームズ・Ｔ・ビアード"
		,"Gunpowder Garry": "火薬のギャリー"
		,"Captain Stoney Dirt": "ストーニーダート船長"
		,"Jake": "ジェーク"
		,"Captain Bullywort": "ブリーワート船長"
	}
	,"StylistNames": {
		"Bri": "ブリー"
		,"Brianne": "ブリアン"
		,"Flora": "フローラ"
		,"Iris": "アイリス"
		,"Scarlett": "スカーレット"
		,"Lola": "ローラ"
		,"Hazel": "ヘーゼル"
		,"Stella": "ステラ"
		,"Pearl": "パール"
		,"Tallulah": "タルーラ"
		,"Ruby": "ルビー"
		,"Esmeralda": "エスメラルダ"
		,"Kylie": "カイリー"
		,"Kati": "カティ"
		,"Biah": "ビア"
		,"Meliyah": "メリヤ"
		,"Petra": "ペトラ"
		,"Rox": "ロクス"
		,"Roxanne": "ロクサーヌ"
		,"Annabel": "アナベル"
	}
	,"TravelingMerchantNames": {
		"Abraham": "アブラハム"
		,"Bohemas": "ボヘマス"
		,"Eladon": "エラドン"
		,"Aphraim": "アフライム"
		,"Gallius": "ガリウス"
		,"Llewellyn": "ルウェリン"
		,"Riley": "ライリー"
		,"Rawleigh": "ローリー"
		,"Shipton": "シプトン"
		,"Romeo": "ロメオ"
		,"Aedan": "エーダン"
		,"Mercer": "マーサー"
		,"Willy": "ウィリー"
	}
	,"AnglerNames": {
		"Bobby": "ボビー"
		,"Sammy": "サミー"
		,"Jimmy": "ジミー"
		,"Danny": "ダニー"
		,"Timmy": "ティミー"
		,"Simon": "サイモン"
		,"Johnny": "ジョニー"
		,"Billy": "ビリー"
		,"Matty": "マティ"
		,"Bart": "バート"
		,"Phillip": "フィリップ"
		,"Spencer": "スペンサー"
		,"Nathan": "ネイサン"
		,"Grayson": "グレイソン"
		,"Miles": "マイルス"
		,"Charles": "チャールズ"
		,"Adam": "アダム"
		,"Tyler": "タイラー"
		,"Jey": "ジェイ"
		,"Ivan": "イワン"
		,"Izzy": "イジー"
	}
	,"SkeletonMerchantNames": {
		"Skellington": "スケリントン"
		,"Bones McGee": "ボーンズ・マッギー"
		,"Gloomy Mays": "グルーミー・メイズ"
		,"Jack Sellington": "ジャック・セリングトン"
		,"Billy Marrows": "ビリー・マローズ"
		,"Tom": "トム"
		,"Rattles Magoo": "ガラガラマグー"
		,"Mandible Calavera": "マンディブル・カラベラ"
		,"Mika": "ミカ"
		,"No-Eyed Wiley": "目なしのウィリー"
	}
	,"TaxCollectorNames": {
		"McKinly": "マッキンリー"
		,"Millard": "ミラード"
		,"Fillmore": "フィルモア"
		,"Rutherford": "ラザフォード"
		,"Chester": "チェスター"
		,"Grover": "グローバー"
		,"Cleveland": "クリーブランド"
		,"Theodore": "セオドア"
		,"Herbert": "ハーバート"
		,"Warren": "ウォーレン"
		,"Lyndon": "リンドン"
		,"Ronald": "ロナルド"
		,"Harrison": "ハリソン"
		,"Woodrow": "ウッドロー"
		,"Tweed": "ツイード"
		,"Blanton": "ブラントン"
		,"Dwyer": "ドワイヤー"
		,"Carroll": "キャロル"
		,"Agnew": "アグニュー"
	}
	,"BartenderNames": {
		"Name_1": "テッド"
		,"Name_2": "バーキープ"
		,"Name_3": "ジェリー"
		,"Name_4": "ビル"
		,"Name_5": "アーネスト"
		,"Name_6": "ウィリアム"
		,"Name_7": "デイル"
		,"Name_8": "ブルース"
		,"Name_9": "ムー"
		,"Name_10": "ジャバホーク"
		,"Name_11": "エランドリアン"
		,"Name_12": "ドリスキャン"
		,"Name_13": "イミソム"
		,"Name_14": "ブラックスミス"
		,"Name_15": "ダニ・ムー"
		,"Name_16": "パディ"
	}
	,"GolferNames": {
		"Name_1": "ライオン・パインズ"
		,"Name_2": "ガナー・マクロビン"
		,"Name_3": "ハリー・マディソン"
		,"Name_4": "アーニー・パームフロンド"
		,"Name_5": "ジェイク・ニクレリスプ"
		,"Name_6": "ウイリアム"
		,"Name_7": "ビリー・ボンズ"
		,"Name_8": "ジム・マリガン"
	}
	,"BestiaryGirlNames": {
		"Name_1": "マリア"
		,"Name_2": "マッケンジー"
		,"Name_3": "アザリア"
		,"Name_4": "ファニータ"
		,"Name_5": "アストラ"
		,"Name_6": "ヘイリー"
		,"Name_7": "ベッカ"
		,"Name_8": "ベロニカ"
		,"Name_9": "ティア"
		,"Name_10": "ロビン"
		,"Name_11": "アリエン"
		,"Name_12": "ジェーン"
		,"Name_13": "ビンディ"
		,"Name_14": "ダイアン"
		,"Name_15": "ローリ"
		,"Name_16": "マーディ"
		,"Name_17": "モリー"
		,"Name_18": "リジー"
		,"Name_19": "ダフネ"
		,"Name_20": "エリン"
	}
	,"PrincessNames": {
		"Ai": "アイ"
		,"Hime": "ヒメ"
		,"Emilia": "エミリア"
		,"Alice": "アリーチェ"
		,"Belle": "ベル"
		,"Sophia": "ソフィーヤ"
		,"Hikari": "ヒカリ"
		,"Faye": "ファイエ"
		,"Christina": "クリスティナ"
		,"Flora": "フロラ"
		,"Liselotte": "リゼロッテ"
		,"Aria": "アリア"
		,"Yuuki": "ユーキ"
		,"Theresa": "テリーサ"
		,"Elitia": "エリティア"
		,"Lucia": "ルシア"
		,"Ariel": "アリエル"
		,"Momo": "モモ"
		,"Charlotte": "シャーロット"
		,"Tiara": "ティアラ"
		,"Yorai": "ヨライ"
		,"Rosetta": "ロゼッタ"
	}
	,"CatNames_Siamese": {
		"Zen": "ゼン"
		,"Callie": "キャリー"
		,"Rainha": "レインハ"
		,"Nust": "ナスト"
		,"Bandit": "バンディット"
		,"Goliath": "ゴリアテ"
		,"Valerie": "ヴァレリー"
		,"Socks": "ソックス"
		,"Iris": "イリス"
		,"Sekhmet": "セクメト"
		,"Cleo": "クレオ"
		,"Sappho": "サッフォ"
	}
	,"CatNames_Black": {
		"Luna": "ルナ"
		,"Figment": "フィグメント"
		,"Ember": "エンバー"
		,"Damien": "ダミアン"
		,"Snowball": "スノーボール"
		,"Night": "ナイト"
		,"Misu": "ミス"
		,"Magic": "マジック"
		,"Tonic": "トニカ"
		,"Violet": "バイオレット"
		,"Jaspers": "ジャスパー"
		,"Gargoyle": "ガーゴイル"
		,"Lilith": "リリス"
		,"Salem": "サレム"
		,"Rascal": "ラスカル"
		,"Bella": "ベラ"
		,"Odin": "オーディン"
		,"Jiji": "ジジ"
		,"Morgan": "モーガン"
		,"Arbus": "アーバス"
		,"Max": "マックス"
		,"George": "ジョージ"
		,"Esper": "エスパー"
	}
	,"CatNames_OrangeTabby": {
		"Linkle": "リンクル"
		,"Remy": "レミー"
		,"Lux": "ルクス"
		,"Sunny": "サニー"
		,"Tigger": "ティガー"
		,"Callie": "キャリー"
		,"Sassy": "サッシー"
		,"Bob": "ボブ"
		,"Leo": "レオ"
		,"Tiger": "タイガー"
		,"Caramel": "キャラメル"
		,"Tony": "トニィ"
		,"Garfield": "ガーフィールド"
		,"Hobbes": "ホッブズ"
		,"Charlie": "チャーリー"
		,"Rascal": "ラスカル"
		,"Critter": "クリッター"
		,"Adol": "アドル"
	}
	,"CatNames_RussianBlue": {
		"Alexi": "アレクシー"
		,"Ruby": "ルビィ"
		,"Bubbles": "バブルス"
		,"Lexi": "レクシー"
		,"Prissy": "プリシー"
		,"Valery": "バレリー"
		,"Lucy": "ルーシー"
		,"Pete": "ピート"
		,"Jocelyn": "ジョセリン"
		,"Light": "ライト"
		,"Lily": "リリ"
		,"Starlight": "スターライト"
		,"Cobalt": "コバルト"
		,"Tilly": "ティリー"
		,"Rion": "リオン"
		,"Momo": "もも"
	}
	,"CatNames_Silver": {
		"Roo": "ルー"
		,"Blaze": "ブレイズ"
		,"Rebus": "レブス"
		,"Polo": "ポロ"
		,"Kelly": "ケリー"
		,"Kiva": "キバ"
		,"Sooty": "スースー"
		,"By-Tor": "ハミィ"
		,"Merlin": "メルレン"
		,"Trudy": "トルーディ"
		,"Nana": "ナナ"
		,"Ange": "アンジェ"
		,"Kanako": "カナコ"
		,"Freya": "フレイア"
		,"Cloud": "クラウド"
		,"Cutie": "キューティ"
		,"Renne": "レンネ"
	}
	,"CatNames_White": {
		"Misty": "ミスティ"
		,"Storm": "ストーム"
		,"Angel": "エンジェル"
		,"Vincent": "ヴィンセント"
		,"MrCat": "ぬこ"
		,"Holly": "ホリィ"
		,"Sam": "サム"
		,"Rory": "ローリー"
		,"Ichibi": "イチビ"
		,"Belle": "ベレ"
		,"Yuki": "ユキ"
		,"Ater": "アテル"
		,"Snowdrop": "スノードロップ"
		,"Snowball": "ゆきだま"
		,"Reah": "リア"
	}
	,"DogNames_Labrador": {
		"Penny": "ペニー"
		,"Pebbles": "ペブルス"
		,"Puppy": "パピー"
		,"Monroe": "モンロー"
		,"Kittie": "キティ"
		,"Buddy": "バディ"
		,"Charlie": "チャーリィ"
		,"Trulte": "トゥルーテ"
		,"Daisy": "デイジー"
		,"Calvin": "カルビン"
		,"Willow": "ウィロー"
		,"Arthur": "アルトゥール"
		,"John": "ジョン"
		,"Bitsy": "ビッツィ"
		,"Mike": "マイク"
		,"Sparky": "スパーキー"
		,"Lucky": "ラッキー"
	}
	,"DogNames_PitBull": {
		"Max": "マックス"
		,"Dexter": "デクスター"
		,"Chomps": "チョンプス"
		,"Bubba": "ババ"
		,"Sampson": "サンプソン"
		,"Spike": "スパイク"
		,"Ginger": "アカゲ"
		,"Kona": "コナ"
		,"Keith": "ケイス"
		,"Jazzy": "ジャジー"
		,"Rex": "レックス"
		,"Toshiro": "トシロー"
		,"Buster": "バスター"
		,"Doug": "ダグ"
	}
	,"DogNames_Beagle": {
		"Zelda": "ゼルダ"
		,"Navi": "ナビ"
		,"Ali": "アリ"
		,"Fred": "フレッド"
		,"Roxie": "ロクシー"
		,"Milo": "マイロ"
		,"Copper": "カッパー"
		,"Darwin": "ダーウィン"
		,"Lieselotte": "リーゼロッテ"
		,"Wilma": "ウィルマ"
		,"Odie": "オディ"
		,"Feena": "フィーナ"
	}
	,"DogNames_Corgi": {
		"Bella": "ベッラ"
		,"Ellie": "エリー"
		,"Baxter": "バクスター"
		,"Oliver": "オリバー"
		,"Maya": "マヤ"
		,"Titus": "ティトゥス"
		,"Shino": "シノ"
		,"Elizabeth": "エリザベス"
		,"Victoria": "ヴィクトリア"
		,"Yona": "ヨナ"
		,"Ammy": "アミー"
		,"Charles": "シャルル"
		,"Estelle": "エステル"
		,"Astro": "アストロ"
	}
	,"DogNames_Dalmation": {
		"Spot": "スポット"
		,"Suzy": "スージー"
		,"Lucky": "ラッキィ"
		,"Marshall": "マーシャル"
		,"Dotty": "ドッティ"
		,"Pongo": "ポンゴ"
		,"Sapphire": "サファイヤ"
		,"Splat": "スプラット"
		,"Aurora": "オーロラ"
		,"Akane": "アカネ"
		,"Firebug": "ファイアバグ"
		,"Polka": "ポルカ"
		,"Mizore": "ミゾレ"
	}
	,"DogNames_Husky": {
		"Rosalie": "ロザリー"
		,"Balto": "バルト"
		,"Miska": "ミスカ"
		,"Sky": "スカイ"
		,"Sasha": "サーシャ"
		,"Zoey": "ゾーイ"
		,"Toya": "トーヤ"
		,"Snowdog": "スノードッグ"
		,"Kayla": "カイラ"
		,"Hachiko": "ハチコ"
		,"Indiana": "インディアナ"
		,"Sven": "スヴェン"
		,"Bullet": "バレット"
		,"Comet": "コメット"
		,"Ingrid": "イングリッド"
		,"Dogi": "ドギ"
	}
	,"BunnyNames_White": {
		"Bunnicula": "バニキュラ"
		,"Ben": "ベン"
		,"Roger": "ロジャー"
		,"Skippy": "スキッピー"
		,"Donnie": "ドニー"
		,"Alice": "アリス"
		,"Presto": "プレスト"
		,"Shion": "シオン"
		,"Lisette": "リゼット"
		,"Lily": "リリィ"
		,"Inaba": "イナバ"
		,"Shirayuki": "シラユキ"
		,"Lilia": "リリア"
		,"Ears": "ミミ"
	}
	,"BunnyNames_Angora": {
		"Breadbuns": "バンズ"
		,"Loaf": "ローフ"
		,"Babs": "バブズ"
		,"BigB": "ビッグＢ"
		,"Greg": "グレッグ"
		,"Fluffy": "フラッフィー"
		,"Pom": "ポム"
		,"Muffin": "マフィン"
		,"Maximus": "マクシムス"
		,"Donald": "ドナルド"
	}
	,"BunnyNames_Dutch": {
		"Oreo": "オレオ"
		,"Olaf": "オラフ"
		,"Domino": "ドミノ"
		,"Oz": "オズ"
		,"Yin": "イン"
		,"Yang": "ヤン"
		,"Pow": "パウ"
		,"Kaguya": "カグヤ"
		,"Mono": "モノ"
		,"Panda": "パンダ"
		,"Orin": "オリン"
	}
	,"BunnyNames_Flemish": {
		"Thumper": "とんすけ"
		,"Cinnabun": "シナバン"
		,"Peter": "ペーター"
		,"Hazel": "ヘイゼル"
		,"Loki": "ロキ"
		,"Sunflower": "ヒマワリ"
		,"Toby": "トビー"
		,"Daisy": "デイジィ"
		,"Dusty": "ダスティー"
		,"Jazz": "ジャズ"
		,"Russell": "ラッセル"
		,"Honeycomb": "ハニカム"
	}
	,"BunnyNames_Lop": {
		"Bunbun": "バンバン"
		,"Lola": "ロラ"
		,"Max": "マクス"
		,"Tyler": "タイラー"
		,"Flops": "フロップス"
		,"Flappie": "フラッピー"
		,"Caerbannog": "カルバノグ"
		,"Mochi": "モチ"
		,"Dandy": "ダンディ"
		,"Puff": "パフ"
		,"Youp": "ユープ"
		,"Boof": "ブーフ"
		,"Veidra": "ベイドラ"
	}
	,"BunnyNames_Silver": {
		"Bugz": "バグズ"
		,"Buster": "バスター"
		,"Silvine": "シルバイン"
		,"Bunstar": "バンスター"
		,"Lord": "ロード"
		,"Bunnykins": "バニキンズ"
		,"Crystal": "クリスタル"
		,"Chrome": "クローム"
		,"Vincent": "ビンセント"
		,"Zach": "ザッハ"
		,"Joshua": "ジョシュア"
		,"Dustbunny": "ダストバニー"
		,"Dusty": "ダスティ"
	}
	,"AnglerQuestChatter": {
		"Chatter_1": "うわー！キミには{AnglerCompletedQuestsCount}回くらい手を焼かされたよ！\n毎回のクールな魚がなければ、腹が立っていたところさ！"
		,"Chatter_2": "ボクは{AnglerCompletedQuestsCount}もの驚くほどすごい魚を持ってる！？\nキミがパシリとして、少しは役に立ってるってことだね！"
	}
	,"BartenderChatter": {
		"Chatter_1": "あらゆる悩みの治療法を持ってるぞ！\n欲しいか？エールは？飲まないのか？"
		,"Chatter_2": "あんたは強いと言われているし、俺はその事を知ってるぞ。\nあんたの実力を測ってみよう。"
		,"Chatter_3": "俺の故郷ではルートビールしか出していない…"
		,"Chatter_4": "一日中テーブルを拭いていたのとは大違いだ。"
		,"Chatter_5": "あんたが単に生まれついてから\n他人より優れているんだったら、人生は試練だぞ。"
		,"Chatter_6": "俺はここで何をしているんだ…"
		,"Chatter_7": "粘り強さと少しの運があれば長い道のりを行く事ができる…"
		,"Chatter_8": "この近くでメブルスを見かけたことはないか？"
		,"Chatter_9": "{Dryad}は良い感じだ。\n俺は彼女を連れて帰らないと。"
		,"Chatter_10": "{Steampunker}が銃を余分に持っていると思うか？\n魔女が欲しがっているかもしれない。"
		,"Chatter_11": "{Demolitionist}の事故が多いのは不思議じゃないぞ。\n奴がどれだけのエールを買うのか想像もつかないだろ？"
		,"Chatter_12": "普段あまりゴブリンは好きじゃないが、\n{GoblinTinkerer}は、まあまあマシな奴だな。"
		,"Chatter_13": "{?Day}誰かドライアドがどこに行ったか見なかったか？"
		,"Chatter_14": "{?!Day}外は本当に静かだ。ちと静かすぎる…"
		,"Chatter_15": "{?!Day}連絡をくれよ、そして、任務を果たすんだ。"
		,"Chatter_16": "{?BloodMoon}俺の故郷では、ブラッドムーンは\n新鮮な空気を吸うための口実に過ぎない。"
		,"Chatter_17": "{?MoonLordDefeated}ムーンロードって、アビスロードのことじゃないのか？"
		,"Chatter_18": "{?HardMode}俺は地下世界のヘルストーンが好きな\nラーヴァマンサーを知っている。"
		,"Chatter_19": "{?Homeless}店を構えるのに良い場所を知ってるか？\nここでバーを開きたいんだ。"
	}
	,"GolferChatter": {
		"Chatter_1": "水の中にボールが落ちたからといって、\n叫んだり叩いたりはしないです。\n落ち着いて次のショットに集中します。"
		,"Chatter_2": "え？あなたは朝食に何を食べるんだい？"
		,"Chatter_3": "早起きは三文の得。\n早くホールを回ればバーディーをとれるしね。"
		,"Chatter_4": "指をなめて風に当ててみて。\nゴルフボールは軽いから風の影響を受けやすいんだ。"
		,"Chatter_5": "砂のせいで悪夢を見るなら、\nウェッジはドリームキャッチャーになるね。"
		,"Chatter_6": "釣りを始めた方がいいかな？\nゴルフボールを水から取り出すように\n{Angler}を買収するなら、私の財布は空になる！"
		,"Chatter_7": "高く打つのか、遠くに打つのか、抜け出したいのか？\nあなたが使うクラブ次第です。賢く選びましょう！"
		,"Chatter_8": "クラブに行くと言ってもダウンタウンじゃないですよ。\nいわば、5番アイアンを使うような？"
		,"Chatter_9": "このゲームでは、敗者だけが高得点を目指します。"
		,"Chatter_10": "造園業者はたくさんグリーンを作ることで、\n我々ゴルファーから稼いでいるに違いありません。まったく！"
		,"Chatter_11": "{Armsdealer}は何回も私のゴルフボールを\nマスケット銃の弾丸と間違えたんですよ。"
		,"Chatter_12": "{Dryad}によると、私が芝刈りをしていると、\n彼女の友達をたくさん殺してしまうようです。\n私のゴルフのコースにはフェアウェイが必要なのに！"
		,"Chatter_13": "グリーンに着地したらパターを使いましょう！\n距離を縮めようとして、\n逆にボールが飛んでしまうのを防ぐためにも。"
		,"Chatter_14": "ウォーターハザードを追いかけるのではなく、\n慣れ親しんだフェアウェイやグリーンにこだわって下さい。"
		,"Chatter_15": "{?BloodMoon}クラブに血痕が付いてるって？\nあなたは外のゾンビを見ました？！"
		,"Chatter_16": "{?BloodMoon}ブラッドムーンとブラッドムーン中の妹、\nどっちが怖いのかわからない！"
		,"Chatter_17": "{?Rain}この天気の中ゴルフですか？！\n巨大な避雷針を振り回したいってのならどうぞ！"
	}
	,"BestiaryGirlChatter": {
		"Chatter_1": "ワタシも元はキミみたいに生き物を集めてたんだけど、\n膝に呪いのキツネの噛みつきを受けてしまってね！"
		,"Chatter_2": "{?Eclipse}ヤバ。なんか、不気味な殺人鬼として今にも駆け回りそう。\nそんな風に愚かじゃなくて良かった。"
		,"Chatter_3": "ワタシは何も知らないかもしれないけど、\n自然の話はできるよ。あと動物と、野生と、あと…"
		,"Chatter_4": "兄貴はワタシをライカンスロープと呼ぶんだ。動物の一部か\n何かって意味でさ。本当は「狼人間」って意味なのにね？\nいっつも外にいるから、まぁそんな程度の理解なんでしょ！"
		,"Chatter_5": "ワタシは動物が本当に好きでね！\n一度、変なキツネを撫でようとしたらね、\n彼ったらワタシの事すっごい噛んでね、\nそしたらそのキツネみたいになったの！サイコー！"
		,"Chatter_6": "尻尾引っ張るのやめて！\nこれは本物だし、引っ張られると本当に痛いんだよ！"
		,"Chatter_7": "んえ？！いや、この髪は{Stylist}に\n染めてもらったわけじゃないよ。\nもともとこの色！噛まれる前はこげ茶色だったけど！"
		,"Chatter_8": "ああ、この耳？ハハ、キミの声がよく聞こえるようにだよ！"
		,"Chatter_9": "一度だけ、動物観察キャンプの時に、朝目が覚めたら何もか\nもがバラバラになってたんだ！ヤバすぎ！\nそんな中でワタシどうやって寝てたんだろう？"
		,"Chatter_10": "ワタシ満月を見たことがないの。\nどういうわけか、いつも気絶しちゃってるの！"
		,"Chatter_11": "どうやってここまで来たのか、まーーーったくわかんない。\nけど、これってすっごくサイコー。"
	}
	,"BestiaryGirlLycantropeChatter": {
		"Chatter_1": "グルルル！！ちかよるな。はなれろ。いますぐ！"
		,"Chatter_2": "がぁう！ワタシ。あぶない。おこってる！"
	}
	,"PrincessChatter": {
		"Chatter_1": "貴方がこの国の為にして頂いた事には、本当に感謝しており\nますわ！ありがとうございました！"
		,"Chatter_2": "ゴブリンはとてもかわいいですね。\n彼らは小柄で、小さなとがった耳を持っていて、\nさまざまな色をしてやって来ますわ。"
		,"Chatter_3": "{?GolemDefeated}リザード族の方を撫でようとしたことがあるんです。\nええ…全く気にも留めていませんでしたわ！"
		,"Chatter_4": "{?MartiansDefeated}火星人の方にはもう少し優しくしていただきたく思います。\n私たちの世界には、普段、訪問者はいらっしゃらないので！"
		,"Chatter_5": "私のドレスはいかがでしょうか？\nまぁ！ありがとう！縫ったばかりなんです。"
		,"Chatter_6": "国民の皆様への感謝の気持ちでいっぱいですわ。"
		,"Chatter_7": "{?FrostLegionDefeated}皆さま、どうかご心配なさりませんよう！雪国の民に、\n組織犯罪の問題が起きていることは十分承知しております。"
		,"Chatter_8": "うーん…貴方は{Pirate}さまが、\n船乗りの古いご友人を引き入れられると思いますか？"
		,"Chatter_9": "{?IceQueenDefeated}氷の女王との外交はうまくいきませんでした。残念ですわ…。\nあの方は少々「冷」淡なんですわね。エヘッ！"
		,"Chatter_10": "{?PumpkingDefeated}パンプキングさまには二面性があるのではないでしょうか。\nあの方の個性的なご友人との和平、私はあきらめませんわ！"
		,"Chatter_11": "ピンク色はこれ以上ないぐらい素晴らしい色ですわ！"
		,"Chatter_12": "{?DukeFishronDefeated}ビーチにてデューク…公爵と会ったことがありますわ。\n個性的な方で、マナーには少々不自由のようでしたわ。"
		,"Chatter_13": "王女として過ごすには、時折平穏すぎるように感じますの。\nそれゆえ、少々の趣味をたしなんでおりますわ！"
		,"Chatter_14": "やっと世界を旅することができて、\nそして、新しい人々に出会え、とても嬉しく思いますわ！"
		,"Chatter_15": "私は人が好きなのと同じくらい、人見知りするんです。\nお話を始めるのには少々かかります…"
		,"Chatter_16": "{?BloodMoon}川が赤々と流れ、皆様は酷く落ち着かないようです。\nうーん…確かにこれは試練の夜、ですわね！"
		,"Chatter_17": "{?!Day}夜の星を見ていると、きれいな黒のドレスにキラキラした\nものが思い浮かびますわ。これはすぐに作らなくては！"
	}
	,"CatChatter": {
		"Chatter_1": "にゃーん！"
		,"Chatter_2": "ゴロゴロ…"
		,"Chatter_3": "みゃーお！"
	}
	,"DogChatter": {
		"Chatter_1": "わん！"
		,"Chatter_2": "ばう！"
		,"Chatter_3": "わんっ！わんっ！"
	}
	,"BunnyChatter": {
		"Chatter_1": "*ウサギのこえ*"
		,"Chatter_2": "*うさちゃんのこえ*"
	}
	,"BestiaryGirlSpecialText": {
		"Party": "だから、えーっと、パーティ帽は被れないの。ごめんね。\nでも、ちゃんとパーティしてるし、心配しないで！"
		,"Graveyard1": "ワタシの本能がマジで暴走しそう。ここから出ないと！"
		,"Graveyard2": "うん、ここはかなりヤバイわ。ワタシの毛皮が逆立つの！"
		,"Windy1": "風の中を走ると、とても自由でワイルドな気分になる。\nたまにはやってみなよ！"
		,"Windy2": "風がワタシの髪を吹き抜ける。もー、最高だね。ワーオ！"
		,"Storm1": "うぎゃーっ！！\nこの敏感な耳に、雷がどんだけ痛いのか、\nキミにはわからないよね。"
		,"Storm2": "もう終わった？ワタシ雷がこわいの。"
		,"Rain1": "やめろーっ！うーっ！\nキミじゃなくて、この雨に言ったの！"
		,"Rain2": "雨マジ！？濡れるのだけは、ぜったい我慢できない！\nきもちわるい…。"
	}
	,"BartenderHelpText": {
		"Help_1": "特別な防衛用のアーティファクトの購入には、\nディフェンダーメダルが必要だ、忘れるなよ！"
		,"Help_2": "アーティファクトを使って、罠や防御タワーを作成できる。\n オールドワンズ・アーミーだけが落とすエーテリアンマナを\n使用すれば、 特別なエネルギーが得られるぞ！"
		,"Help_3": "オールドワンズ・アーミーに挑戦するのは簡単だ。\n奴らはエターニアの水晶の力に引き寄せられてくる。"
		,"Help_4": "エターニアの水晶を置くには、\nエターニアの水晶と台を手に入れる必要がある。\nちょうどここにあるから、買っていったらどうだ！"
		,"Help_5": "エターニアの水晶台を\n平らな開けた土地に置きたいと思うだろう。\n壁や物がごちゃごちゃと置いてあると戦いにくいからな！"
		,"Help_6": "台を置いたら、エターニアの水晶を持って、\nそいつを使用するんだ、そして戦いに備えろ！"
		,"Help_7": "もちろん、オールドワンズ・アーミーに\nエターニアの水晶を破壊させてはだめだ！\nこれは俺のエーテリア世界にとって\n壊滅的な影響を与えることになるからな！"
		,"Help_8": "エーテリアンマナを10個消費して防衛設備を置けるぞ。\nエターニアの水晶を配置すると、マナの一部を解放する。\nそれ以外でマナを得るには、敵を倒すことだな。"
		,"Help_9": "防衛設備の力を借りて、\nエターニアの水晶を破壊しにやってくる\n侵略者を撃退するんだ！"
		,"Help_10": "侵略者を撃退すれば、\n多くのディフェンダーメダルを受け取れる。\nそいつを持ってくれば、俺が多くのアーティファクトや\n特別な物と交換してやるぞ！"
		,"Help_11": "噂では、オールドワンズ・アーミーを倒すと、\nアーティファクト自体の力が更にアンロックされるらしい。\nたぶん、いつでもそれが使えるようになるんだろう！"
	}
	,"GuideHelpText": {
		"Help_1063": "いつもなら僕が\nオールドワンズ・アーミーについて教えるんだけど、\nこれについては{Bartender}に聞いてね。"
		,"Help_1064": "月が赤くなると、水は血のようになる。水に浸かった生物は\nグロテスクで悪意に満ちたものになるかも。"
	}
	,"GuideHelpTextSpecific": {
		"Help_1100": "ジャングルにはトカゲの種族が住んでいると聞くね。\nジャングルの巨大な獣を倒せれば、\n彼らから注目を浴びることができるかも？"
		,"Help_1101": "君が解放した力を退ける事に詳しい女性がいると聞いたよ。\n君が自分を証明すれば、彼女の注意を引けるだろうね。"
		,"Help_1102": "機械も悪くない。\nジャングルで爆発物を使った武器を手に入れられれば、\n自分たちで作れるかもしれない…"
		,"Help_1103": "この地方でスタイリストに会ったことがある。\n最後に見た時は地下を冒険していたね。\n彼女はどうなったんだろう？"
		,"Help_1104": "変な魚を釣ってしまって、\nどうしたらいいのかわからなくなったことはない？\n釣りの達人が海の近くに住んでいると聞いた事があるけど、\nその人はそれらの使い道を知っているかもしれない…"
		,"Help_1105": "地下世界の苛まれた霊には見覚えがある。\n浄化の粉は使ってみたかい？"
		,"Help_1106": "最近、海賊を見かけるね。\n誰かと仲良くなれば、宝を埋めた場所を教えてくれるかも？"
		,"Help_1107": "物を染めるのに使える特殊な植物がある。\n手元に置いておけば、教えてくれる人が見つかるかもね。"
		,"Help_1108": "光るキノコは地上で大きくなって\n覚醒すると聞いたことがある。本当なのかな…"
		,"Help_1109": "ゴルフでは砂場が悪いとされてる。\n自尊心のあるゴルファーは砂漠では捕まらないだろうけど…\nホントかな？"
		,"Help_1110": "芸術家は技術を磨くのが好き。画家なら絵を描くことかな。\n十分な数の人が引っ越してきたら、\n画家がここを美化しに来るぐらいの家になるかも。"
		,"Help_1111": "最近、引越しが多いよね？ここがもっと賑やかになったら、\nきっとパーティガールが入居してくるよ！"
		,"Help_1112": "見知らぬ人に常に目を配ろう。\n助けを必要としている人に新しく出会うかもしれない。"
		,"Help_1113": "{Merchant}の商品に興味がない場合、放浪の商人は、\n君が好むかもしれないエキゾチックな商品を持って\n頻繁に訪問するだろうね。"
		,"Help_1114": "全てのアンデッドモンスターが敵意を持ってる訳じゃない。\n地下深くで商品を売っていることもあると聞いてるよ。"
		,"Help_1115": "この世界には、たくさんの刺激的で危険な生き物がいる。\nその知識を共有するとご褒美をくれる専門家がいるみたいだ！"
		,"Help_1120": "雨の日はひどいものだと思うなら、\nスライムの雨を見るまで待ってみて！"
		,"Help_1121": "まれに、月が太陽を覆い隠して、\n怖いモンスターがたくさん出てくるよ！"
		,"Help_1122": "世界の外側でゴブリンの斥候を見たことがあるかい？\n侵略が迫っているのかな…"
		,"Help_1123": "宝の地図が海に浮かんでいるのを見たことがあるんだけど、\nサメに食べられてしまったんだよね。\n探しに行ってみたら？"
		,"Help_1124": "空高く、遠くに点滅する光を見たんだ。\n真実はそこにあるんだよ。本当さ。"
		,"Help_1125": "夜空に浮かぶ美しい提灯を見たことがある？\nこの世界の人々は、君の勝利を祝い、幸運を祈っているよ。"
		,"Help_1130": "空き瓶を机の上に置けば、\nそれを使ってポーションが作れるようになるよ！"
		,"Help_1131": "敵を倒して獲得したバナーは、そのクリーチャーとの戦闘に\n役立つので、吊るしておこう。"
		,"Help_1132": "雪のバイオームはかなり寒いけど、そこにはユニークなお宝\nがある。チェックしてみよう！"
		,"Help_1133": "砂漠の地下深くにはアントリオンの巣穴がある。\n珍しい化石がたくさんあり、危険がいっぱいだ！"
		,"Help_1134": "大理石のバイオームを見つけたら要注意！\nその場所には、とても危険な生き物が生息しているようだ！"
		,"Help_1135": "御影石のバイオームでは、石そのものが脅威！\n命を吹き込まれたものが、よく侵入者を攻撃してくるよ。"
		,"Help_1136": "{WorldName}で見つけられない鉱石で作る何かが必要？\n箱を釣るか、取り出し機に沈泥や水雪や化石を入れるんだ！"
		,"Help_1137": "この冒険から一息つきたいときは、\nいつでも古き良き時代の釣りを楽しむことができるよ。"
		,"Help_1138": "地下を探索していると、\n時々親切な妖精に遭遇するかもしれない。\n妖精を追いかければ、もしかしたらお宝に出会えるかも！"
		,"Help_1140": "次のステップは、真紅の洞窟を探索すること。\nクリムゾンハートを見つけて、破壊するんだ。"
		,"Help_1141": "真紅にあるクリムストーンは、\nドライアドから手に入る粉を使って浄化したり、\n爆薬で破壊したりできる。"
		,"Help_1142": "水と溶岩が交わってできた黒曜石を集めてみて。\n強烈な熱から身を守るために使うことができるんだ。"
		,"Help_1143": "巨大な蜂の巣がジャングルの地下に埋もれてるって。\n僕も蜂蜜が欲しいな。"
		,"Help_1144": "砂漠で古い化石が見つかった？\n岩から採取する方法はないのかな。"
		,"Help_1145": "古いかまどをアップグレードする時が来た！\n地下世界で地獄のかまどを探すんだ。\nそれがヘルストーンを製錬する唯一の方法なんだ。"
		,"Help_1146": "ワイバーンが雲の上を高く舞い上がっているのを\n見たことがある？あんな風に飛べたらいいのに…"
		,"Help_1147": "地獄のかまどとアダマンタイト鉱石を組み合わせてみよう。\nそうすればより強力な素材が作れるはずだよ！"
		,"Help_1148": "地獄のかまどとチタン鉱石を組み合わせてみよう。\nそうすればより強力な素材が作れるはずだよ！"
		,"Help_1149": "ジャングルで珍しい果物を見つけたかい？\n食べれば最大ライフが上がるよ！"
		,"Help_1150": "最近、ジャングルで光るピンクの球根が育ってるみたい。\n収穫するなら、あらゆる準備をしておいた方がいいね。"
		,"Help_1151": "その鍵を使えば、\nジャングルの中に封印された寺院を開けられるかもね。\n寺院はもう見つけたかな？"
		,"Help_1152": "ジャングルの中には封印された寺院があるという。\nどうやって開けたらいいんだろう？"
		,"Help_1153": "おお、その鍵は良いものだよ！\nその鍵があれば、ダンジョンで珍しい宝をゲットできるよ！"
		,"Help_1154": "地下のキノコ群生地にいる変なワームのことを\n聞いたことがある。釣り餌にはいいのかな？"
		,"Help_1155": "かぼちゃで作られたメダリオンを使って\nハロウィン怪物の大群を召喚する方法を、\n古代の預言書が伝えているよ。"
		,"Help_1156": "伝説によると、呪いの贈り物が、\n最も華やかな夜を恐怖の侵略に変えてしまうらしい！"
		,"Help_1157": "ダンジョンの入り口でたむろしている\n奇妙なフードの連中がいる。調べたほうがいいかも？"
		,"Help_1158": "あの柱はどこから現れたんだ？！\n周りにいるモンスターを倒さないと！"
		,"Help_1159": "クリムゾンアルターでレンズを合成すれば、\n強力なモンスターを呼び出せるよ。\n夜にならないとだめだけどね。"
		,"Help_1160": "雪の降る夜中に、原野から恐ろしい轟音が響いてくるんだ！\nそこに何かがいる！"
	}
	,"AnglerQuestText": {
		"NoQuest_1": "今はキミへの頼み事はないよ。"
		,"NoQuest_2": "今日は大満足さ。じゃね。"
		,"NoQuest_3": "終わった？\nなら、偉大なる{Angler}サマはキミをクビにする！"
		,"NoQuest_4": "魚は１日１匹までだよ。またね！"
		,"NoQuest_5": "前にもらった魚を十分楽しんでないんだ。\n他の魚はまだいらないよ。"
		,"TurnIn_1": "おっ！頼んでた魚ありがとね。じゃあ、もう帰っていいよ。"
		,"TurnIn_2": "大漁だあ！これ、全て計画通りかも！ヘヘヘっ！"
		,"TurnIn_3": "キミは偉大なるパシリになれる！じゃあね！"
		,"TurnIn_4": "にゃはははは！やるじゃん！\nでも、まーだ終わりじゃあないんだよなあ、あーうんざり！"
		,"TurnIn_5": "ワオ！？ボクの期待に応えて、生き延びたんだね！\nさっすがー。\nじゃ、それをこっちによこして、行っていいよ！"
		,"Quest_Batfish": "ナナナナナナナナ…バットフィーッシュっ！\n地下を掘って、誘い出し、釣り上げて、持ってきて！\n\n（地下か洞窟で釣れる）"
		,"Quest_BumblebeeTuna": "{WorldName}のジャングルの地下で、\nマルハナバチくらいデカい魚を見たんだ！\nボクはハチアレルギーだからキミが捕まえてきてよ！\nきっとマグロとハチミツを挟んだ\nサンドイッチみたいな味だよ！\n\n（蜂蜜の池で釣れる）"
		,"Quest_Catfish": "ジャングルでようやく泳ぐネコを見つけたんだ！\n多分、体の一部が魚なんだと思う。\n何でそうなったのか知りたくもないし、\nまぁ分かんないけどね。\nとにかくその、泳ぐネコが欲しいんだ！\n\n（地上ジャングルで釣れる）"
		,"Quest_Cloudfish": "なんでも、上空のどこかに、浮島があるっていう噂。\nしかも、すごいお宝が埋もれてるんだって！\nまあ、そんな事はどうでもいい。\nボクは湖の形をした雲から時々、\n魚が出てくるってのが気になる！\nどんな味がするのか食ってみたくって…\nつまり、ボクのためにひとつ捕まえてきてってこと！\n\n（空島で釣れる）"
		,"Quest_Cursedfish": "不浄の地の奥底には、それは恐ろしい魚が泳いでるんだ！\nそいつは深い闇に潜み、\n忘れた頃に呪われた炎から生まれる。\nなんでも、その炎は水ですら消えず、\n永遠に燃え続けるって噂。\nボクはそいつを使って…\nそう、あんなことやこんなことだってできる！\nもちろん取って来てくれるよね？まさか怖くて行けない！？\n\n（不浄で釣れる）"
		,"Quest_Dirtfish": "ボクが森の湖で大物を引いて、リールを巻いてる時だ。\n慌てて叫ぶゾンビが森から飛び出して来て、言ったんだ。\n「『獰猛』な魚が土ん中から飛び出してきた！」\nあいつが言うには、10人の男やそんくらいの生き物を\n窒息死させる大きさだったと…\nボクはそいつが欲しい！今すぐに！\n\n（地上か地下で釣れる）"
		,"Quest_DynamiteFish": "爆破技師が森の湖でダイナマイトを無くしたって騒いでた。\nいっぱい持ってるのになんでそんなに騒ぐかって？\nどうやらそのダイナマイトは魚になって泳ぎだしたらしい！\nどんな材料を使ったらそんなことになるかは\n分からないけどさ、きっと何かにとり憑かれたんだよ！\nそいつを釣ってきて！\n自爆魚が欲しいってずっと思ってたんだ！\nなんで欲しいかって？それはナイショだよ…\n\n（地上で釣れる）"
		,"Quest_EaterofPlankton": "イーターオブプランクトンを見つける勇気は\nキミにはないだろうね。\nケガれたその魚は、\n斬られたイーターオブワールドの一部から生まれたみたい！\n弱虫の汚名を返上したいなら、そいつを釣ってみてよ！\n\n（不浄で釣れる）"
		,"Quest_FallenStarfish": "空から降ってくる黄色いキラキラ星を集めるのが大好き！\n星が誰かの頭にぶつかるのはもっと好きだけどね。\nでも、でもね、なによりも一番ステキなのは、\n星が森の湖に落ちてきて魚になることさ！\nすごくイカした魚だけど、それをキミが釣ってきたら\nキミはもっとイカしてるんだけどなあ！\n\n（空島で釣れる）"
		,"Quest_TheFishofCthulu": "どうやらデーモンアイは時々水中で過ごしてるらしいね。\n飛んでるんじゃない、泳いでるってこと！\n風呂場で泳いでるのを誰かが見たら、どんな顔するだろ！\nあいつらはその辺の水辺をうろうろしてるらしい。\nボクのために釣ってきてくれよ！\n\n（空島か地上で釣れる）"
		,"Quest_Fishotron": "詳しいことはさっぱり。\nだけど、骨の魚ってのが釣れるみたいだよ。\nフィッシュオトロンって奴は、\nボクでもビビる地下深くに住んでるみたい。\nダンジョンのじいさんのと同じ悪霊がとり憑いてるのかな！\nじゃあ、頑張って釣ってきてね！\n\n（洞窟で釣れる）"
		,"Quest_Harpyfish": "丘の湖畔で昼寝しようとして、突然魚が降ってきたんだ。\nそいつは空を飛ぶのさ！\n女の顔をしてて羽も生えてるんだよ！\n魚が叫んだので、ボクはもっと大声で叫んだんだ！\nねぇ、キミ。\nボクをビビらせた仕返しをしてくれよう！\n\n（空島か地上で釣れる）"
		,"Quest_Hungerfish": "欲しくてたまらないものがあるんだ。\nウォールオブフレッシュが小魚のように変化した物体さ。\nそれは地下世界をあても無く泳ぎ続けてるらしい。\n気味が悪くて、おまけにゲロまずいんだってさ。\nけど、今すぐホシイ！\n\n（洞窟で釣れる）"
		,"Quest_Ichorfish": "真紅の地下で黄色いモノを出す怪物がいるのを知ってる？\nボクはとんでもない話を聞いたんだ。\nなんでもその化け物が集まり、\n溶け合って魚になって泳ぎ回るって！\nぜひ釣ってきて！\n誰かのトイレにその魚をつっこんでみたいんだ！\n\n（真紅で釣れる）"
		,"Quest_Jewelfish": "あぁああああああ、大金持ちになりたいっ！\nなんでも洞窟の奥深くに、宝石でできた魚がいるみたい！\n釣り方なんてボクに聞かないで！\nとにかくどえらい魚なんだから釣って持ってきてっ！\n\n（地下か洞窟で釣れる）"
		,"Quest_MirageFish": "聖域深くに面白い魚が住んでるのをキミに教えるよ！\nいかれた紫色に光って、見てると目が回ってくるヤツ！\nそいつはとても乱暴なんだ。\nだからキミが釣って来るんだよ！\n\n（地下聖域で釣れる）"
		,"Quest_MutantFlinxfin": "白と茶色でふわふわの生き物が地下の凍った湖に住んでる？\nそれは突然変異したスノーフリンクスだ！\nウソじゃない、ホントさ。\n水中や他の環境に適応したフリンクスが本当にいるんだ！\nボクの金魚鉢に適応したフリンクスも見てみたいねえ。\nつまりさ、キミが実現するってこと！\n\n（地下雪原で釣れる）"
		,"Quest_Pengfish": "サメだ！イルカだ！\nいや、ペンギンウオだ！\nあぁ、なんだキミか！\nペンギンウオを捕まえてきてくれよ！\n冷たい水の中にいるのは知ってるよね？\n\n（雪原で釣れる）"
		,"Quest_Pixiefish": "実際には飛べないけど、たくさんの翼を持って生まれた\n激レアなピクシーがいるって！\nそいつは青い草に囲まれた湖で、魚といっしょに泳ぐって。\nボクの水槽に明かりが欲しいんだ。\nそのピクシーが必要だね！\n\n（聖域で釣れる）"
		,"Quest_Spiderfish": "ボクは８本足の魚を見た！\nマジ！ありえねえ！\nキミが釣ってきてくれ。どうか死んでる状態でね！\n洞窟の奥深くで釣りをするのはもうこりごりだよ！\n\n（地下か洞窟で釣れる）"
		,"Quest_UnicornFish": "ユニコーンと虹の組み合わせはいつ見ても良いよね！\n水中でだってそうだよ！いや、本当さ？\n聖域の湖でユニコーンフィッシュを見たんだ！\nペットにしたいから釣ってきて！\n\n（聖域で釣れる）"
		,"Quest_GuideVoodooFish": "地下世界のデーモンって本当、ブードゥー人形好きだよね。\nでも、いくつの人形を魔法で吹っ飛ばしてるのかな？\n吹っ飛んだ人形は魚に変わって、\nそんで、その魚が人形の材料になるとか。\nなんとか、その魚を釣ってきてよ！\nぐつぐつの溶岩に気をつけて！\nキミが焼け死んだら魚が手に入らないんだからさ！\n\n（洞窟で釣れる）"
		,"Quest_Wyverntail": "キミが知らない事を、ボクは知ってるぞぉお！\nそれは…空の星を飛び回る、恐ろしい化け物！\n嘘じゃない！その名はワイバーン！\n…まて、まってよ、ここまではキミも知ってるよね？\nここからが新事実！\nワイバーンは、オタマジャクシみたいなもので生まれて、\nそこからあれに成長するんだ！つまり、まぁ、カエルだね！\nさぁオタマジャクシの頃のを釣ってきて！\n\n（空島で釣れる）"
		,"Quest_ZombieFish": "マジでありえない！夜の森で死んでる魚を釣っちゃった！\nしかもそいつ、ボクに喰いつこうとした！\nだから投げ捨てて逃げたよ！\nでも、そいつを誰かのドレッサーに投げ込んだら…\nちょっとどうなるか試したくなってきた。\nボクの代わりに釣ってきてくれるよね！？\n\n（地上で釣れる）"
		,"Quest_AmanitaFungifin": "巨大なキノコに覆われた、\nすべてが青い壮大な場所を見つけたんだ！\n青く輝く湖のそばにあるキノコをとっていたら、\nキノコがボクに噛み付いて泳ぎ去っていったんだ！\nそいつには罰を味わわせてやりたい！\nよく噛みしめるように！\n何が言いたいかというと、ボクのために釣ってきてくれ！\n\n（光るキノコ洞窟で釣れる）"
		,"Quest_Angelfish": "空高くに浮かぶ魔法の島のことを知ってる？\nキミは知らないだろうね！\nそこには天使が住んでるらしいんだ。\n思うに、きっとヒレとエラがついてて、泳ぎ回ってるね！\nそれで、きっとキミが釣ってきてくれるんだろうね！\n\n（空島で釣れる）"
		,"Quest_BloodyManowar": "いてて！さわらないでよ！\n血の色をしたシビレクラゲに刺されちゃんたんだよ！\n察しの悪いキミに教えるけど、\n{WorldName}の中で一番恐ろしいクラゲにだよ！\n腐った真紅でそいつを釣ってきて！\nキミに出来るならね！\n\n（真紅で釣れる）"
		,"Quest_Bonefish": "地下の水場で魚の骨が浮いてても、普通はどーでもいい。\nけど、そいつが泳いでたら話は別！\n{WorldName}で動き回ってる骨は、\n人型だけじゃないんだよ？\n誰かのベッドにそいつを突っ込んでみたい！\n釣ってきてよね！\n\n（地下か洞窟で釣れる）"
		,"Quest_Bunnyfish": "森のはずれで釣りをしていた時…何が起こったと思う？\n１匹のウサギがボクに跳び乗ったんだ！\nさらに２匹、３匹…ついには周りをウサギに囲まれた！\nそして水中からもウサギが跳び出した！\nそいつには足がなかったんだ！\n思わずイスから転げ落ちたらウサギの群れは逃けた！\nあのバニーフィッシュをペットにしたい！\n釣ってきて！ささっと頼むよ！\n\n（地上で釣れる）"
		,"Quest_CapnTunabeard": "ヨーホー相棒！船も震えろ！悪党も逃げろ！\nある海賊船長が「ひげマグロ船長」って魚を飼ってたんだ。\n嵐の日、そいつの入った金魚鉢が海に落ちた！\nその尾びれはかぎヅメ、眼帯やらなんやらを付けてる！\nキミが釣ってきてくれたら、ボクもクールな海賊さ！\nもちろんそいつは海にいる！あったりまえだよね！\n\n（海で釣れる）"
		,"Quest_Clownfish": "海でオレンジ色のきれいな魚を見たんだ。\nはぐれた家族を探してるみたいに、\n必死にきょろきょろしてたんだ！\nキミが釣ってきてくれたら、\nきっと別のやつが、必死にきょろきょろするんだろうね！\n\n（海で釣れる）"
		,"Quest_DemonicHellfish": "ウワサだと、地下世界に住まう悪魔の王は魚なんだって！\n考えても見てよ！\nキミがそいつを釣ってきてくれたら、\nボクは絶対王者になれるんだ！\n\n（洞窟で釣れる）"
		,"Quest_Derpfish": "ジャングルのダープリングが今まで見た中でいちばん怖い！\nよかったことに、やつらには足が無いんだ！\nやつらは水中で暮らしてる。\nそのおかげで、ボクがいつもビクビクせずに済むってこと！\n死ぬような思いはなるべくしたくないんだよ。\nキミが釣ってきてくれー！\n\n（地上ジャングルで釣れる）"
		,"Quest_Fishron": "伝説に語られる強大な存在、その名もフィッシュロン！\nブタと、コウモリと、ドラゴンを組み合わせたような魚！\n氷の世界の地下深くで捕まえられるらしいよ。\nキミがそいつを釣って、ボクの手元に持ってくる！\nうー、ワクワクする！\n\n（地下雪原で釣れる）"
		,"Quest_InfectedScabbardfish": "剣のサヤみたいなめちゃくちゃ長い魚が、\n不浄の濁った水の中にいるんだ！\nその魚はエボンストーンによく似てるから、\nダマされないでね！\nそう。\nその魚をキミが釣ってくるのさ、ボクじゃなくてね！\n\n（不浄で釣れる）"
		,"Quest_Mudfish": "ジャングルの水中を進むときは足元に気をつけてね！\nナゼって？\nいや、ピラニアに喰われるからじゃないよ。\nボクお気に入りの、泥魚を踏みつけるなってこと！\nそいつをペットにしたいから釣ってきて。\nこれも重要なことだから、気をつけてね！\n\n（ジャングルで釣れる）"
		,"Quest_TropicalBarracuda": "ピラニアとかサメはブサイク！チョーブッサイク！\nでもキレイな顔してキミの顔を食べちゃう魚は知ってる？\n衝撃の場面を見られるなら、２プラチナ払ってもいいけど…\nでも、一番重要なのは、キミがそれを釣ってくるってこと。\nキミの顔が無くなる前に、ボクまで持ってきてくれよ！\n\n（地上ジャングルで釣れる）"
		,"Quest_TundraTrout": "{WorldName}の雪原の水が何故凍らないか気になる？\nボクはどっちでもいいけど。\nんじゃあ魚はどうだろうか！\n氷でできた魚。\nこの{Angler}にとって素晴らしい贈り物になるかもね！\nボクの偉大な計画のために、ツンドラマスを釣ってきて！\n\n（地上雪原で釣れる）"
		,"Quest_Slimefish": "森の中のスライムってちょっと気持ち悪いよね。\nでもスライムフィッシュはもっと気持ち悪い！\nボクはスライムと仲良く泳ぎたくない。\nだから、キミが水の外に持ち出してきてくれるってわけ！\n\n（地上で釣れる）"
		,"Quest_ScarabFish": "魔法のスカラベに見える魚がいるって昔話で読んだんだ。\nキミら凡人にはカブトムシにしか見えないだろうけどね！\nどこにいるかって？ん？どこだと思う？砂漠だよ！\nちょ、ちょ、そんな目でボクを見るなよ。\n本当に砂漠には水があるんだ。\nボクが行ってもいいんだけど…\nハゲワシに目玉をつつかれるのはゴメンだね。\nってわけで、キミが行ってきて。\n\n（砂漠で釣れる）"
		,"Quest_ScorpioFish": "バカなヤツが砂漠には水がないと言うんだ！\nそれは絶対に間違い！\nオアシスってのがあって、そこに水があるんだよ！\n水があれば魚がいるだろ？\n刺されたり、挟まれたり…いろんな悪さをする変な魚！\nボクには完璧なペットが、\nキミには仕事が与えられるってもんさ！\n\n（砂漠で釣れる）"
	}
	,"PirateChatter": {
		"Chatter_1": "そろそろこの辺で酒を飲まねェと！\nラム酒がほとんどなくなっちまった！"
	}
	,"GuideChatter": {
		"Chatter_1": "{TaxCollector}を浄化したって聞いたよ。\n彼は相変わらず貪欲だよ！"
		,"Chatter_2": "どうして前任者は自分から炎に飛び込んだんだろうか。\n僕に同じことが起こらないといいけど…"
	}
	,"NurseChatter": {
		"Chatter_1": "私がワインを何度頼んでも、\n{Bartender}がくれるのはビールのジョッキだけ。"
	}
	,"StylistChatter": {
		"Chatter_1": "{Bartender}にタダで髪切ってあげるって\n言ったんだけど、断られたわ。\n私でも彼のヒゲを剃るくらいはできたのに！"
	}
	,"CyborgChatter": {
		"Chatter_1": "{Bartender}ハ、トアル \"EV2 \"ヲ\n思イ出シタソウダ。彼女ニ会ウベキカモシレナイ。"
	}
	,"MechanicChatter": {
		"Chatter_1": "{Bartender}がルートビールを差し出してきたから、\n四角いカップに入れて渡すように言ったの。"
	}
	,"AnglerChatter": {
		"Chatter_1": "どうにかして{Bartender}に\n酒を売ってもらえないかなあ？\n試してみたいんだ！なんとなくね！"
		,"Chatter_2": "ちょちょ！\nキミ、ボクが釣り糸を巻いてたのが見えなかったの！？"
		,"Chatter_3": "魚なら間に合ってるよー。"
		,"Chatter_4": "{WorldName}にはシェフがいないから、\n全部自分で料理しなくちゃね。"
		,"Chatter_5": "ねえ見て！ボクはこれまでで一番のいたずらを仕掛けてるん\nだ！まだ誰も気づいてないんだから、誰にもヒミツだよ！"
		,"Chatter_6": "年下からの忠告で悪いけど、氷ブロックを舐めるのは絶対や\nめたほうがいいよ！あっまって、今のは忘れて。\nキミが氷ブロックを舐めるところ、ボクはすっごく見たい！"
		,"Chatter_7": "吠える魚って見たことある？\nボクはないけど、本当にいるのか確かめてみたいなあ。"
		,"Chatter_8": "{WorldName}には妙な魚がいっぱい住んでるんだ！"
		,"Chatter_9": "きっとボクが生まれる前に絶滅した魚も\n山ほどいるんだろうな。残念だなぁ！"
		,"Chatter_10": "ボクにはとーちゃんもかーちゃんもいないけど、\nたくさんの魚があれば、それで十分なのさ！"
	}
	,"GoblinTinkererChatter": {
		"Chatter_1": "あの乱暴なエーテリアンゴブリンは僕達の仲間ではないよ。\nかといって、僕達がアイツらよりマシって訳ではないけど…"
	}
	,"MerchantSpecialText": {
		"Party": "パーティで最もよい事を知っていますか？\n他人のために物を買う事ですよ、特に私からね。"
		,"Graveyard1": "この辛気臭い雰囲気は商売によくありません！"
		,"Graveyard2": "なんてひどい場所でしょう…\n死人相手では商品を売ることもできません！"
		,"Windy1": "なんて風の強い日でしょう！\nそんなときは私のところで買い物をするといいですよ。"
		,"Windy2": "私はスライムを使って帽子が飛ばないようにしています。\nもしかしたら2ゴールドほどであなたに売ることができる…\nかもしれません。"
		,"Storm1": "避雷針ですか？在庫切れのようです。"
		,"Storm2": "嵐が来ています…何か買って頂けませんか？"
		,"Rain1": "傘！傘！半額の傘はいかがですか！？"
		,"Rain2": "なんて退屈な日でしょう！\n99本のたいまつで気分を明るくしましょうか！"
	}
	,"NurseSpecialText": {
		"Party": "やめて。\nケーキの上に何本のロウソクがあるかなんて、\n言うわけ無いでしょ。"
		,"Graveyard1": "ああ！こんなところでウロウロするくらいなら、\n廃病院で働いてた方がマシだわ！"
		,"Graveyard2": "ここは気味が悪いわね。\nそれに死んでる患者は治療できないし！"
		,"Windy1": "この風はいやになるわ。針が飛び散るから注意して！"
		,"Windy2": "一日中、医療器具を追いかけていたの。\nこの強風が私を健康にしているわ！"
		,"Storm1": "私はショック療法をしていないわ。\n外の木の下にでも立ってなさい！"
		,"Storm2": "安全のために家にいて！\n今日は多くの感電患者を治療したわ。"
		,"Rain1": "あんまり外に出てると風邪をひくわよ！"
		,"Rain2": "ああもう！服がずぶ濡れ。ジロジロ見ないで！"
	}
	,"ArmsDealerSpecialText": {
		"Party": "パーティはな、弾丸みたいに、\n自分の殻から飛び出るのにうってつけ、ってな。"
		,"Graveyard1": "こういう場所はダメだ。\nすでに死んでちゃ、殺りようがねえ！"
		,"Graveyard2": "霧の中で妙な動きがあったとしても、\n俺は関わってなんかねえぞ。"
		,"Windy1": "新しい銃を試したんだが、風で狙いを外しちまった！"
		,"Windy2": "この風ン中じゃ、下手な鉄砲数撃ちゃ当たる、\nとはいかんぜ、相棒！"
		,"Storm1": "電撃銃？んなもんに構ってる暇はねーな。\n俺は弾丸ラブだから！"
		,"Storm2": "タイミングを合わせれば、雷鳴であんたの銃声はバレねーよ？"
		,"Rain1": "あんたを殺ろうとしてくる雲がいると聞いたぜ！\n俺の銃で、誰がボスかをわからせてやれ！"
		,"Rain2": "トビウオだあ？射撃の的だろそんなもん！"
	}
	,"DryadSpecialText": {
		"AfterDD2Tier1": "エーテリアにいた時、\n{WorldName}から切り離された気がしたの。\n戻れてよかったわ。"
		,"AfterDD2Tier2": "エーテリアに行った時、不浄は私を乗っ取ろうとしたの。\nけれど、私はその力を\nオールドワンズ・アーミーに向けたわ！"
		,"WorldStatusAll": "{0}の{1}%は聖域、{2}%は不浄、{3}%は真紅ね。"
		,"WorldStatusHallowCorrupt": "{0}の{1}%は聖域、{2}%は不浄ね。"
		,"WorldStatusHallowCrimson": "{0}の{1}%は聖域、{2}%は真紅ね。"
		,"WorldStatusCorruptCrimson": "{0}の{1}%は不浄、{2}%は真紅ね。"
		,"WorldStatusCorrupt": "{0}の{1}%は不浄ね。"
		,"WorldStatusCrimson": "{0}の{1}%は真紅ね。"
		,"WorldStatusHallow": "{0}の{1}%は聖域ね。"
		,"WorldStatusPure": "{0}は完全に浄化されているわね。見事な仕事ぶりよ！"
		,"WorldDescriptionBalanced": "世界の調和が取れているわ。"
		,"WorldDescriptionFairyTale": "おとぎ話の世界に住んでいるみたいだわ。"
		,"WorldDescriptionGrim": "ちょっと厳しい状況ね…"
		,"WorldDescriptionWork": "もっと頑張りなさい。"
		,"WorldDescriptionClose": "あと少しよ！"
		,"Party": "私は過去の勝利とこれからの勝利を祝う会を\nやろうと思っていたわ。"
		,"Graveyard1": "不浄はどうにかできるけれど、\nこの場所の死の空気は、私の髪の花を枯らしてしまうの。"
		,"Graveyard2": "この場所…ここで倒れた人たちの悲鳴が聞こえる。"
		,"Windy1": "風は…自然の力で土地の埃を払いのけてくれるわ。"
		,"Windy2": "今日は、自然の猛威が木の葉をはぎ取っているわね。"
		,"Storm1": "怒った母が、私たちのこずえに破壊的な力を降り注ぎ\n汚物を焼き払おうとしているの。"
		,"Storm2": "上の方は閃光で危険、その下を堂々と横切るなんて。\n賢明とはいえないわ。"
		,"Rain1": "空からの水は、\n私達の流れの中にある泥を、自然が洗い流すためのものよ。"
		,"Rain2": "雨が降ると、\n多くの種類の魚が神秘的な性質を持つようになるわ。"
	}
	,"GuideSpecialText": {
		"Party": "パーティーに参加したことはあるかい？\n周りの人を調べてみたらいいよ。\n何か特別な物を持ってるかもね。"
		,"Graveyard1": "墓場は不気味でとても危険なんだ。\n足元に気を付けて、坊や。"
		,"Graveyard2": "ここは寒くて不吉な場所だ。\n何か邪悪なものが僕を呼んでいるような気がする。"
		,"Rain1": "雨が降っている時にしか出てこない生き物もいるので\n注意しよう。"
		,"Rain2": "心配いらない、ただの水さ。\n雨の時に飛べる、ある種の魚がいると聞いたよ。"
		,"Windy1": "強烈な突風に負けず、\nそれを利用しているモンスターにも注意しよう。"
		,"Windy2": "外は風が強いね！今が凧揚げにはベストだ。"
		,"Storm1": "雷雨の中での外出は危険だ。隠れたほうがいいよ、坊や。"
		,"Storm2": "雷は大変だ、この天気では非常に強力な悪魔が出てくる。"
		,"SlimeRain": "このスライムをうんざりするほど倒せば、\n王の怒りを招くかもしれない。気をつけて！"
		,"Eclipse": "はぁ？！太陽はどこ？なんでこんなに暗いんだ？\nこれは…日食に違いない！"
		,"Lantern1": "何と美しい夜だろう！\n君の最近の勝利で、世界はより平和になったようだね。\nこの提灯はそれを祝っているんだ。"
		,"Lantern2": "提灯が見えるかい？\n君が世界を救った今、定期的に勝利のお祝いをするんだ。\nいつもながら、美しい光景だよ！"
	}
	,"DemolitionistSpecialText": {
		"AfterDD2Start": "なぜポータルは爆破できんのだろうか。"
		,"Party": "今日は気をつけた方がいいぞ。\n我々ドワーフは、\nちと爆発的なパーティーにしちまうことが多いのでな。"
		,"Graveyard1": "ここの死の悪臭は、\n俺が働くスケルトンだらけの洞窟よりももっと悪いぞ！"
		,"Graveyard2": "この骨と石の山…吹き飛ばすには最適だ！"
		,"Windy1": "今は地面にグレネードを投げるのに\n最適な時期ではないかもしれないぞ、背の高い友人よ！"
		,"Windy2": "ブーメラン爆弾が欲しいのか？\n突風の中にいくつか投げてみろ、\n確かに戻ってくるはずだ！"
		,"Storm1": "ドカーン！\n母なる自然でさえ、心地よい破壊が好きだということだ！"
		,"Storm2": "爆薬でいっぱいの俺の荷車に、雷がおっこちる…\nどうなるかなど言わせるな！"
		,"Rain1": "ドワーフにはとんでもない日だな。"
		,"Rain2": "アーッ！\n濡れたもんのせいで、また導火線が切れちまった！\nこんなこと地下では絶対にないぞ！"
	}
	,"ClothierSpecialText": {
		"Party": "母はいつも言っていたよ。\nパーティをする前に、過去は過去のものにしろ、とね。"
		,"Graveyard1": "私は呪われている！病院に連れていってくれ！"
		,"Graveyard2": "大きな墓場だね。ここは分け合おう。\n死者が半分に住み、残りは私達が住む。どうだろう！"
		,"Windy1": "時々思うけど、風車が足りないんじゃないかね。"
		,"Windy2": "今日の大気は全く大したもんだね！"
		,"Storm1": "嵐はいつか過ぎ去るさ、だから息をするのを忘れないでね。"
		,"Storm2": "嵐でなければ、みんな外に出てしまうだろうね。\n雷のせいで危険なんだよ。"
		,"Rain1": "雨が降っているね！\nちっちゃくて刺すような大粒の横殴りの雨だ！\n少なくとも真上からは降ってこない！"
		,"Rain2": "ある日、こんな感じで雨が降り出して、\n4日間も雨が止まなかったんだよ！"
	}
	,"GoblinTinkererSpecialText": {
		"Party": "ゴブリンのパーティは、人間がするのと似ている。\n「ロバにしっぽ」ならぬ「ヒトに罰」ゲームとか…\n僕のパーティではそんなゲームはしないけどね。"
		,"Graveyard1": "フォトンサックを作動させてるんだ。\n外に潜んでいるガーストを罠にかけるための発明だ！"
		,"Graveyard2": "絶え間ないうめき声と耳をつんざく悲鳴のような音が、\n僕の仕事をじゃまする！"
		,"Windy1": "この天気だからこそ、ゴーグルをつけているんだ！\n汚れや砂が目に入ってきては困るからね。"
		,"Windy2": "今なら風車のアクセサリーをいじるのに最適な時期だよ！"
		,"Storm1": "身の回りで放出される自然エネルギーを利用する発明に\n取り組んでいるんだ！"
		,"Storm2": "ほとんどのゴブリンは雷雨が嫌いだ。\nおそらく、ゴブリンはたくさんの尖ったボールを持っている\nからだ。"
		,"Rain1": "この雨で視界が悪くなってしまった。\nワイパーを付けてゴーグルをいじってみようかな。"
		,"Rain2": "人間はゴブリンよりも背が高い。\n洪水になると、僕らはいつも大変なことになっているよ！"
	}
	,"WizardSpecialText": {
		"AfterDD2Tier1": "まず、ワシは以前、こんなポータルを見た気がするのう。\nが、そいつは金色だったぞい。"
		,"Party": "紛れようもない、真の魔法のパーティの始まりじゃ。"
		,"Graveyard1": "ワシは死者を蘇らせることなどできん。故に聞くでない！"
		,"Graveyard2": "おかしいのう、ワシが水晶玉で誰かの遥か未来を見ると、\nその相手は全員ここに行き着くんじゃ！"
		,"Windy1": "この大荒れに悩まされておるのか？\nおあつらえ向きの呪文があるぞい。"
		,"Windy2": "世界を恐怖に陥れる風の一撃じゃと？\nまたワシ何かやっちゃいましたかの？"
		,"Storm1": "また誰ぞ、ワシの呪文書を盗んだか！？"
		,"Storm2": "お前さんはこれを雷と呼ぶのか？昔のワシは……\nフム。して、何か用かの？"
		,"Rain1": "無論、雨の中で外に出ようが溶けはせんぞ。\nこれが魔法使いじゃ、バカモンが！"
		,"Rain2": "雨粒がワシに…\nここはどこじゃ？お前さんは？\n…ワシは誰？"
		,"LuckIsCursed1": "近寄るでない！\nお前さんは後ろに悲惨で不運のベヒーモスを引いとる！\nワシは関わりたくないんじゃ！"
		,"LuckIsCursed2": "お前さん、このワールドの鏡を全部ぶち壊したんか？\nなんという愚か…手の施しようがないほど呪われておる！"
		,"LuckIsTerrible1": "お前さんを取り巻く恐ろしい運命を感じるぞい！\n今日は寝ておれ！"
		,"LuckIsTerrible2": "お前さん、それほど不幸になるまでに\nどれだけ塩をこぼしたんじゃ！？"
		,"LuckIsPoor1": "ネガティブなエネルギーが毛穴から漏れとるぞ。\n今日ワシは無理をせんようにするわい。"
		,"LuckIsPoor2": "不幸の予兆がお前さんの頭を覆っておる。\n不幸の手紙を転送したと見えるが、さて？"
		,"LuckIsBad1": "お前さんの行く先は、空気が重く、暗くなるじゃろう。\n悪い予感に注意じゃな。"
		,"LuckIsBad2": "何ぞ気になることはあるかいの？\n何かしらが、お前さんをよく思っていないようじゃ。"
		,"LuckIsGood1": "お前さんには良いカルマの欠片を感じる。\nが、ワシの勘違いやも。"
		,"LuckIsGood2": "お前さんには、珍しい、ぽかぽかするようなものがある。\nワシにはその扱い方は分からんが、\nお前さん、今のやり方を続けたまえよ。"
		,"LuckIsGreat1": "お前さん、何か壮大なことが今にも起こりそうな、\nポジティブなエネルギーを放っとる。"
		,"LuckIsGreat2": "お前さんの望みが叶うやもしれぬ幸運の波動が、\nあたかもお前さん自身から発せられておるようじゃ。"
		,"LuckIsAmazing1": "四つ葉のクローバーの庭を持っとるのか？\nお前さん、大いなる幸運のエッセンスが炸裂しとるぞ！"
		,"LuckIsAmazing2": "思わぬ偶然がお前さんに微笑みかけるじゃろう！\n万事において利益を見出すことができよう！"
		,"LuckIsGodly1": "お前さんは、驚くべき幸運の祝福であふれておる！！"
		,"LuckIsGodly2": "お前さんの破格の本質から、計り知れない健康と\n幸福が湧き出ておる！お主、天の使いじゃろ！！"
	}
	,"MechanicSpecialText": {
		"Party": "キャンドルの代わりに電球でケーキを飾っても\n誰も気にしないでしょ？"
		,"Graveyard1": "この暗くて怖い場所を照らさなきゃ。\n怪物たちを寄せ付けないようにね。"
		,"Graveyard2": "不気味な死体が邪魔でうまく配線できないんだけど！"
		,"Windy1": "おっと！低気圧が来たみたいね。\n送電網が壊れないようにしないと。"
		,"Windy2": "竜巻でワイヤーが絡まっちゃった。足元に気を付けて！"
		,"Storm1": "すごい！またポンプがどこかに行っちゃった！\nいつになったら嵐が止むの！？"
		,"Storm2": "私の発明品を持ったまま外に出ちゃダメだよ。\nすごい雷に打たれちゃうかもしれないでしょ？"
		,"Rain1": "雨が止んでくれないとレンチが全部錆びちゃう！"
		,"Rain2": "ああもう！またコンセントがショートした！\n雨なんて大嫌い。"
	}
	,"TruffleSpecialText": {
		"Party": "みんなを自宅のパーティに招待したはずなのに、\nキノコは一人も来てないんだ。"
		,"Graveyard1": "ここは家族を持つには最高の場所だよ。\n同胞のほとんどがここで生まれたんだ！"
		,"Graveyard2": "ここは気持ちがいいんだ。なぜかはわからないけど…"
		,"Windy1": "僕の種族は非常に脆いから、\nこんな風の強い日には同胞のことが心配だよ。"
		,"Windy2": "風は味方じゃないんだ。暗くて落ち着いた場所が好きだよ。"
		,"Storm1": "この天候は君の種族にとって有害だね、人間。"
		,"Storm2": "最後の雷鳴で胞子がびっくりした！"
		,"Rain1": "ああ…湿っていて気持ちいい。とても気持ちがいい。"
		,"Rain2": "雨は同胞への嬉しい知らせだよ。"
	}
	,"SteampunkerSpecialText": {
		"Party": "アイツら積層式ケーキが好きだって言ってたろ、\nだから、あたいのところにも積層式煙突を設置したんだ。"
		,"Graveyard1": "何だよ！こんなところに住もうと決めたのは、\nどんだけ教養がない豚野郎なんだ？"
		,"Graveyard2": "こんな悲惨な場所では、血も蒸気も出ないね。"
		,"Windy1": "あー…風を肴に、お茶をいただくかな。"
		,"Windy2": "なぜか、この強風現象に触発されて、新しいジェットパック\nエンジンのアイデアが浮かんできた！"
		,"Storm1": "電気？馬鹿げたこと言うなって！\n蒸気の力に勝るものはないんだ！"
		,"Storm2": "あたいがいじっているものはすべて金属でできてる。\n今の状況は、確かにそれを見直すきっかけになってる。"
		,"Rain1": "雨は諸刃の剣…\n雨は蒸気のための水を提供してくれるけど、\n設備は錆びちまう。"
		,"Rain2": "血のような土砂降り！\n濡れちまったら、あたいは何もできねぇー！"
	}
	,"DyeTraderSpecialText": {
		"HasPlant_0": "素晴らしいよ、君！\n実に見事なサンプルを持ってきてくれた。\nそれもこの世界の中でも美しい色と香りのものだ。\n引き替えに、このスペシャルな染料をあげよう。"
		,"HasPlant_1": "君は美しく珍しい花を持ってきたな…うむ、わかるだろう？\n苦労に免じてこのスペシャルな染料をあげよう、友よ！"
		,"HasPlant_2": "最高だ、素晴らしい友人よ！\nこの優美な標本なら、これまで{WorldName}で見た中で\n最も素晴らしい染料に会えるかも知れない！\n君は今すぐこれを持っていっていいぞ！"
		,"NoPlant_0": "ああ、ダメだダメだ。\nこの染料はいくらお金を積まれても渡せないよ、\n私に希少な植物標本をくれたらプレゼントだ！"
		,"NoPlant_1": "この{DyeTrader}を騙そうなんて考えないことだ！\nスペシャルな染料はスペシャルな花としか\n交換できないんだ！"
		,"NoPlant_2": "この染料ボトルが欲しいのかい？\n残念だが親愛なる友人よ、これはコインじゃやれない。\n自生植物で最も貴重で希少なものを私にくれれば、\nこの中の一つと交換しよう！"
		,"Party": "私は本当にパーティが大好きだ、\nたくさんの美しい色、そして幸せな人たちがいる。"
		,"Graveyard1": "おやおや…これはダメだ。\nこの腐敗した環境が、私の染料の花びらをくすませる。"
		,"Graveyard2": "君、ここが私にふさわしい場所だと思うかい？\nまったく活気がなくて、くすんだものども、\nそれが文字通り私の足の下にいるんだ。"
		,"Windy1": "素晴らしい！風がいろんな色の花びらを運んでくる！"
		,"Windy2": "ちょっと待ってくれ。\n突風からパレットを保護しなければ！"
		,"Storm1": "なんてこった！私はこの面倒な嵐が嫌いだ！"
		,"Storm2": "君よ、自然の怒りが静まったら教えてくれまいか！"
		,"Rain1": "水が多くて、マイベストセレクションが薄まってしまう！ \n雨よ去れ、去ってくれ！"
		,"Rain2": "ノォ、ノォ、このローブだけは濡らせられない！\n鮮やかな色が落ちてしまう！"
	}
	,"PartyGirlSpecialText": {
		"AfterDD2Tier1": "オーガって見た事ある？一回背中に乗ってみたいの！"
		,"Party_1": "うーん？今日は特に何も…なんてね！\nパーティの時間よ！そのあと二次会！"
		,"Party_2": "ついに、私の時間が来たようね！"
		,"Graveyard1": "ヤッホー！パーティーの時間よ！\n…あれ、なんで反応がないの？"
		,"Graveyard2": "死者を起こすほど大声でパーティーをしましょう！\nへへへへへ！"
		,"Windy1": "誰かハリケーンパーティーって言った！？\nバッテリーを持ってくる！"
		,"Windy2": "むむっ、どこへでも紙吹雪を投げれる\n素晴らしい時間が来たようね！"
		,"Storm1": "ディスコで突然雷の音がして、パニックう！"
		,"Storm2": "踊りましょう！空の鼓動に合わせて腰を振るの！"
		,"Rain1": "外は雨ね！中に入ってパーティーよ！"
		,"Rain2": "あら、みんな濡れているの？まあ、気にしない！"
		,"Cake1": "どこ行ってたの？\n盛り上がってるよ！ケーキを取って！"
		,"Cake2": "シーッ！だ・れ・に・も言わないで！\nこれは、パーティーのサプライズよ！"
		,"Cake3": "パーティーアップ！\nあなたは～、ケーキ担当の{PlayerName}さんね！"
		,"Music1": "曲でパーティーが台無しになってない？\nプレイリストをシャッフルしてあげるわ。"
		,"Music2": "今回のパーティーは、ちょっとした気分転換にもなりそう！\nこんなジャムセッションはいかが？"
		,"Music3": "この曲に合わせてずっとパーティーをしてきたわ！\n「Let's change it up」！"
	}
	,"CyborgSpecialText": {
		"Party": "多分パーティハナットニ、ソシテボルトニナルデショウ！"
		,"Graveyard1": "魅惑的デス。\nコレハ、壊レテ機能不全トナッタ\n人間ノタメノ貯蔵庫ノヨウデスネ。"
		,"Graveyard2": "センサーハ、エネルギー粒子密度ノ増加ヲ示シテイマス。\n私ノ視覚受容体ハ、ソレヲ識別スルコトガデキマセン。"
		,"Windy1": "センサーハ気圧ノ急激ナ変化ヲ示シテイマス。\n注意ガ必要デス。"
		,"Windy2": "気圧ノ大キナ高低差ガ検出サレマシタ。"
		,"Storm1": "ビー！厳重ナ気象警報。\nコレハ避難訓練デハアリマセン。スグ避難シテクダサイ。\nビー！"
		,"Storm2": "異常レベルノ正ト負ノ荷電粒子ガ検出サレマシタ。"
		,"Rain1": "降水ヲ感知シマシタ。避難場所ヲ探シテクダサイ。\n錆ビテシマイソウデス。"
		,"Rain2": "鉄砲水注意報。エラー404：土嚢ガ見ツカリマセンデシタ。"
	}
	,"PainterSpecialText": {
		"Party": "ペイントボールの試合をしたかったけど、\nみんなは、それよりも食べ物や飾り物の方がいいみたい。"
		,"Graveyard1": "僕が塗るのは壁や家具であって、骨じゃない！\n今日は「死者の日」という訳でもないんだから！"
		,"Graveyard2": "寂しい場所だね…色が必要なのは確か、だよね？"
		,"Windy1": "すきま風を感じる？ペンキの煙があちこちに漂ってるね。"
		,"Windy2": "風の嵐が、生乾きの塗料を壁からぜんぶ吹き飛ばしたんだ！"
		,"Storm1": "雷が鳴り、落雷が起こると…本当に家具の色が引き立つね。"
		,"Storm2": "まばたきをすると見逃しちゃうけど、\n雷が明滅するとき、鮮やかな色が際立つんだ。"
		,"Rain1": "雨は一番の悪夢だよ。\n僕の努力を、文字通り水に流しちゃうんだ！"
		,"Rain2": "ついさっき、この壁に壁画を描き終えたんだ。\nお天気ラジオを買っとけばよかった！"
	}
	,"WitchDoctorSpecialText": {
		"AfterDD2Tier1": "エーテリアンダークメイジには、同族の精神を感じる。\n我々の敵であるのは残念だが、彼らから学びたかった。"
		,"Party": "我は汝が本来どのように祝うか見たかった、\nまた機会もあろう。"
		,"Graveyard1": "目覚めよ、ゾンビ！\nゾンビよ、立ち上がるのだ！"
		,"Graveyard2": "汝は墓地から死神を追い出そうとするだろう。\nしかし、死神から墓地を追い出すことはできまい…"
		,"Rain1": "雨の音が魂を癒す。"
		,"Rain2": "調和が大事なのだ。\n我らは太陽を求める。我らは雨を求める。\nどちらか一方が多すぎると破滅につながる。"
		,"Windy1": "お守りは近くに置いておけ…\n風にさらせば、それを失う。"
		,"Windy2": "風は木の葉を揺らし、木の葉は風に揺らされる。"
		,"Storm1": "今日、まばゆいばかりの威厳の中で霊は大声で鳴く。"
		,"Storm2": "雷は強力な影を投げかけ、影は強力な稲妻を投げかける。"
	}
	,"PirateSpecialText": {
		"Party": "ケーキを食べた後、オメェから白ひげって呼ばれるかもな。"
		,"Graveyard1": "ああ…\n言いたかないが、多くの仲間が地面にこんな穴を掘った…\nみなまで言わせないでくれ。"
		,"Graveyard2": "ヨーホー…海こそが海賊の墓場！\n陸者は無駄なことをしているな！"
		,"Windy1": "帆を上げろ！海賊がレースを始めるぞ！ヨーソロー！"
		,"Windy2": "総員出動！風の嵐が吹き荒れるぞ！"
		,"Storm1": "やあやあ！衝撃に備えろ、剣士よ！すべての嵐の母だ！"
		,"Storm2": "偉大なるカリュブディス！\nお前は今、俺らにどんな呪いをかけているんだ！？"
		,"Rain1": "ハァーハー！雨か！？今日も海賊の日和だな。"
		,"Rain2": "魚は雨の空を飛ぶ！俺はこの目で見た！"
	}
	,"StylistSpecialText": {
		"Party": "今日専用に自分の髪を整えてきたのよ。\n…ホントは、ハサミで風船を割りたいだけだったり。"
		,"Graveyard1": "きゃあ！こんな殺伐とした雰囲気じゃパーマが台無しよ！"
		,"Graveyard2": "ウィッグ用の髪の毛を集めに行きたいけど、\n外に出たくないのよ！"
		,"Windy1": "風になびく髪にしたい？外に出れば無料よ。"
		,"Windy2": "うっ！今日は休みにしようかな、\nこの風では頑張りが吹き飛んじゃうよ。"
		,"Storm1": "私は中にいるわ！アインシュタイン風は流行らないし。"
		,"Storm2": "マジありえない！この狂った嵐は仕事のじゃま！"
		,"Rain1": "私はそんな事しないわよ。濡れネズミは髪型じゃない！"
		,"Rain2": "え？！雨？パーマかけたばっかなのに！"
	}
	,"AnglerSpecialText": {
		"Party": "もしかして…\nボクが子供だからパーティーが好きだと思ってる？\nまぁ正しいよ、パーティーしよう！"
		,"Graveyard1": "ボクは今めっちゃくちゃビビってる！キミのせいだぞ！"
		,"Graveyard2": "こんな状況で、どうやって釣りしろっての！？\nイカれてんの、バカなの！？"
		,"Windy1": "風の日は普通釣りやすいんだけど、これはだめだ！\n危うくめだまを釣っちゃうところだ！"
		,"Windy2": "これはハリケーン！？イルカにひかれそうになった！"
		,"Storm1": "雷雨は釣りに行くのにいいけど、危険だ！\nだからキミに譲ってあげる！"
		,"Storm2": "キャンプ中に釣りをしてたら、雷が湖に落ちたんだ！\n突然、魚が水面に浮いてきた！"
		,"Rain1": "よっし！雨だっ！\nキミがボクのために釣りをしてる間、\nキミがびしょびしょになるのを見れるかな！"
		,"Rain2": "いつも雨の中釣りに行くんだ！\nだからこんな帽子をかぶってるのさ！"
		,"BloodMoonFishing1": "ブラッドムーンになると、\n水中に超こわい魔物が現れるのさ！\n行って試してみて、ボクはここで見てるからさ！"
		,"BloodMoonFishing2": "水がぜーんぶ血みどろになってる時に釣りをしてみなよ！\n死んじゃうかも！"
	}
	,"TaxCollectorSpecialText": {
		"Graveyard1": "死と税金、それ以上に確実なものはない！"
		,"Graveyard2": "ここの者どもは金を払っておらん！死んだ方がマシだ！\nああ、もう死んでおるわ。"
		,"Windy1": "家が吹っ飛んだからといって、\n税金を払わなくともよいというわけではない！"
		,"Windy2": "カーッ！この風が続くと、皆は大切な財産を失い、\nワシに金を払わなくなってしまう！"
		,"Storm1": "凄まじい嵐！ 驚くべき嵐！"
		,"Storm2": "酔っぱらったように目が回るわい！この天気は全く良い！"
		,"Rain1": "くだらん！陸を歩く魚を見たと言ってくる者がおる。\nワシをバカにしとるのか？！"
		,"Rain2": "なぜ金貨が降ってこない！？水などどこにでもある！\nカーッ、なんとムダな！"
	}
	,"BartenderSpecialText": {
		"FirstHelp": "まずは、ディフェンダーメダルを何枚か集めてきてくれ！\n特別な防衛設備と交換してやる！"
		,"FirstMeeting": "ハァッ？ 俺はどうやって、ここに来たんだ？\n目の前にポータルがあったのは覚えているんだが…"
		,"BeforeDD2Tier1": "オールドワンズ・アーミーをどうにかしないとな。\nエターニアの水晶のことは、よければ俺に聞いてくれ。"
		,"AfterDD2Tier1": "グッジョブだ、\nオールドワンズ・アーミーを撃退してくれるなんてな！\nただ、後詰めの軍団は居なかったようだ。\n今回、奴らはあまり戦いを広げられなかったようだな。"
		,"AfterDD2Tier2": "オールドワンズ達はますます強くなっているのに、\nあんたは彼らを退けている！\nしかし何だろう、まだ終わっていないような気がするな。"
		,"AfterDD2Tier3": "あんたは本当に\nオールドワンズ・アーミーの全軍を抑えていたのか？\nたまにはエーテリアに行ってみたらどうだ？"
		,"Party_1": "パーティが始まったようだな！\n俺もちょうどバーを拭き終えたところだ。"
		,"Party_2": "座って楽しんだらどうだ？\n心配するな、コボルドがこのパーティを壊すとは思えん。"
		,"Graveyard1": "エーテリアには暗い場所がいくつかあるが…\nここは段違いだ！"
		,"Graveyard2": "今夜のバーはまるで死んでいるようだ。臭うぞ！"
		,"Windy1": "屋根が飛んでしまう。昨日直したばかりなのに！"
		,"Windy2": "帽子を押さえてろ、今日は風が強いからな。"
		,"Storm1": "嵐から避難しろ！座って酒を飲め。"
		,"Storm2": "疲れているようだな！マグカップで落ち着くかもしれん。"
		,"Rain1": "あんた溺れた毛むくじゃらの犬みたいだぞ！\nエールを飲むのはどうだ？"
		,"Rain2": "ここに入る前に足を拭いてくれよ。"
	}
	,"GolferSpecialText": {
		"FirstMeeting1": "救助に感謝します。\nこれ以上ここに閉じ込められていたら、\n熱中症になっていたかもしれません。"
		,"FirstMeeting2": "ありがとう！\n何日もこの砂の穴から出られませんでした。\nサボテンから水を汲み出すことができてよかったです。"
		,"Party_1": "周りの不愉快なパーティのせいで、\nスイングに集中できません。"
		,"Party_2": "ホールインワンです！皆で祝杯をあげましょう。\nゴルフクラブを置いて、マルガリータを飲む時間ですね。"
		,"Graveyard1": "墓場は気味が悪いですね。\n家族や友人の上でスイング練習は好ましくないですよ。"
		,"Graveyard2": "墓地でゴルフをするのはやめましょう。\n芝が効率よく生えすぎてコース全体が荒れてしまいます。"
		,"Windy1": "この風が吹くと非常に難しいコースになります。"
		,"Windy2": "強い突風がゴルフゲームに手応えを加えています。\nしかし、これはかなり過剰ですね。"
		,"Storm1": "この状況でゴルフなんて考えられませんよ、{PlayerName}。"
		,"Storm2": "雷に打たれる確率は宝くじと同じです。\n外に出てアイアンを振るのは、当選確率が高いです！"
		,"Rain1": "雨の中でのゴルフは楽しくないですね。\n何もかもが滑りやすい！"
		,"Rain2": "雨が降るとウォーターハザードが大きくなるので、\nグリーンにたどり着くまでが大変です。"
	}
	,"PrincessSpecialText": {
		"Party": "パーティーですか？ええと…お祭りのことでしょうか？\nお祭りは大好きですわ！\nピンクがいっぱい！キラキラも！なんて楽しいんでしょう！"
		,"Graveyard1": "ええ…外はちょっと怖いですわ。\nお茶をいただきましょうか。"
		,"Graveyard2": "今の音は何でしょう？\nんんー、きっと気のせいですわ！"
		,"Windy1": "まぁ！ティアラは手で持っていた方が良さそうですわ！\n今日は外が荒れておりますから！"
		,"Windy2": "今日は凧を揚げるにはうってつけの日と存じております。\nいかがでしょう？"
		,"Storm1": "うーん。外の嵐はかなり激しそうです。\nこの混乱した状況を楽しんでみましょうか。"
		,"Storm2": "外出するのには、少々強い暴風雨ですわね。\nお気をつけくださいませ！"
		,"Rain1": "雨が降っていると、何か落ち着きますわね。"
		,"Rain2": "雨が降るのは大好きですわ。癒されます。"
	}
	,"SantaSpecialText": {
		"Party": "まさか、わしが祝うのはクリスマスだけと思っとったのか？"
		,"Graveyard1": "ホッホッホ！ おっと、よく見たら…\nわしは２ヶ月も早く来たのか！？"
		,"Graveyard2": "悪い子か、いい子か？ウーム、なんと珍しい…\nここにいる人達はみんなわしのリストから\n消えてしまっておる。"
		,"Windy1": "ホッホー！\nわしのトナカイは今夜マッハのスピードで飛ぶぞい！"
		,"Storm1": "ホッほ…うわぁ！ダッシャーが逃げた。ドナーもじゃ！"
		,"Rain1": "たいまつを持っておるかの？\n今夜はわしのソリを案内してくれんか？"
	}
	,"TravellingMerchantSpecialText": {
		"Party": "パーティは最高に豊かな思い出をくれると言うね。\nだから何か買って、この思い出を豊かなものにしよう！"
		,"Graveyard1": "うわー！この沢山の商品を見てくれ！\n…君に売るために、ここに埋葬された死体から剥いだんじゃ\nないぞ。ホントさ。"
		,"Graveyard2": "今まで旅をした中で、\nこんな陰気な所に住んでいる人に出会った事はない！\nあっ、まぁ、コインさえ頂けるのでしたら…"
		,"Windy1": "僕は風の運ぶ場所へと行く。\nけど、これはバカげてないか！"
		,"Windy2": "エキゾチックな風の靴下を売りたいところだけど、\n残念ながら、在庫が無いんだ。"
		,"Storm1": "急いで買って！"
		,"Storm2": "うわー！危なかった！レンガとモルタルは、\n今はかなり良い投資のように思えるな。"
		,"Rain1": "雨が降ろうが晴れようが、\n僕は君の役に立つために遠くから来たんだ！\nコインは持っているかい？"
		,"Rain2": "エキゾチックなコートが縮んでしまったら、\nちょっと慌ててしまうね！"
	}
	,"SkeletonMerchantSpecialText": {
		"Graveyard1": "俺が元々ここの一員だったと思っているかもしれないが、\n断じて違うからな。"
		,"Graveyard2": "俺はどうやってここに来たんだ！？\nここいらのは俺の友人じゃないぞ！"
		,"Windy1": "上の世界は波乱万丈で混沌としている。\nだが俺は、いわば骨がくっついていられる世界の方が好きだ！"
		,"Storm1": "地上は過剰なほどの破壊的な嵐か。\n骨が雷で焦げたら、多少見栄えが悪くなるだろうな！"
		,"Rain1": "地上？かなり濡れてるようだな。\n俺の骨が水浸しで汚れるのはまっぴらごめんだ…"
	}
	,"GolferQuestsChatterMaster": {
		"1": "あなたは凡人の中を歩く神です！壮絶なゴルファーですよ！"
		,"2": "もしあなたの素晴らしいスイングに\nトロフィーを贈呈するならば、１０個あげます！"
		,"3": "なんて息を呑むようなゴルファーなんだ。\nあなたはトップにいても、決して油断しないでしょう！"
	}
	,"GolferQuestsChatterJourneyman": {
		"1": "感動しました。統計的に、あなたは他の人を超えたウェッジです！"
		,"2": "あなたの成績は並外れています！\n心配することがありますか？"
		,"3": "あなたのコースはパーを下回ってます。全く素晴らしい！"
	}
	,"GolferQuestsChatterApprentice": {
		"1": "良くなってきましたね！\nもう私が心配することはないですね。"
		,"2": "平凡なスイングです。\n付け加えるなら、だいたいコースはパーでしょう。"
		,"3": "チャンピオンレベルとは言えません。\nしかし、あなたならいずれ到達するでしょう。"
	}
	,"GolferQuestsChatterBeginner": {
		"1": "そんな風に振り回したら、\n誰かを傷つけることになりますよ…\nあるいは自分自身を！"
		,"2": "たくさんの練習が必要です。\nパッティングを強くお勧めします。"
		,"3": "さながらおかわいそうな鳥です。\n鴨は美味しいですけど。\nしかし、まあ、諦めないでください。"
	}
	,"TownNPCMoodBiomes": {
		"Forest": "森林"
		,"NormalUnderground": "地下"
		,"Snow": "雪原"
		,"Desert": "砂漠"
		,"Jungle": "ジャングル"
		,"Ocean": "海"
		,"Hallow": "聖域"
		,"Mushroom": "光るキノコ群生地"
		,"Dungeon": "ダンジョン"
		,"Corruption": "不浄の地"
		,"Crimson": "真紅の地"
	}
	,"TownNPCMood": {
		"Content": "私は満足しています。"
		,"NoHome": "家を持っていないのが 嫌なんです。"
		,"FarFromHome": "家から遠すぎる。"
		,"DislikeCrowded": "人混みが嫌いです。"
		,"HateCrowded": "こんなに混んでいるのは 嫌だよ。"
		,"LoveSpace": "沢山のスペースが あるのがいいね。"
		,"LikeBiome": "私は {BiomeName} が 好きだ。"
		,"LoveBiome": "私は {BiomeName} を 愛している。"
		,"DislikeBiome": "私は {BiomeName} が 嫌いだ。"
		,"HateBiome": "私は {BiomeName} が 大嫌いだ。"
		,"LikeNPC": "私は {NPCName} が 好きだ。"
		,"LoveNPC": "私は {NPCName} を 愛しているよ。"
		,"DislikeNPC": "私は {NPCName} が 嫌いだ。"
		,"HateNPC": "私は {NPCName} が 大嫌いだ。"
	}
	,"TownNPCMood_Guide": {
		"Content": "かなり調子がいいね。"
		,"NoHome": "家を持たないことには 慣れている。 けど、 家があってもいいと思う。"
		,"FarFromHome": "僕の家からは 遠く離れているようだ。"
		,"DislikeCrowded": "僕は自由人だ。 多くの人が身近にいるのが 嫌だな。"
		,"HateCrowded": "過密が嫌いだ。 僕は拓けた場所が好きだ！"
		,"LoveSpace": "個室がもらえるなんて… とても感謝しているよ。"
		,"LikeBiome": "僕は {BiomeName} を 彷徨うのが たまらなく好きだ。 ここが好きなんだ。"
		,"LoveBiome": "僕は {BiomeName} を 愛している。"
		,"DislikeBiome": "僕は {BiomeName} が あまり好きじゃない。 得られるものが少ないんだ。"
		,"HateBiome": "僕は {BiomeName} が 大嫌いだ。 ここの恐怖は 一瞬で 人を 苦しませる。"
		,"LikeNPC": "僕は {NPCName} が かなり好きだ。 共通点が多い。"
		,"LoveNPC": "僕は {NPCName} と居るのが 大好きだ。"
		,"DislikeNPC": "{NPCName} は 神経にさわる。 あの変な服のせいかな？"
		,"HateNPC": "そばに {NPCName} が いるのがすごく嫌だ。 この世界はこのままで いいんだよ！"
		,"LikeNPC_Princess": "{NPCName}がいると、 ついに 呪いが解けたか のように感じられて 安心なんだ。"
	}
	,"TownNPCMood_Merchant": {
		"Content": "うまくいく気がします！ 何か買いますか？"
		,"NoHome": "私が店を構える場所が ないんですよ、 お得意様。"
		,"FarFromHome": "ああ、 私は自分の商品置き場へと 戻らねばなりません！"
		,"DislikeCrowded": "ご近所さんの 数の多さに、 少し落ち着きません。"
		,"HateCrowded": "ぶらぶらしている方が 多いのはすごく嫌ですね。 しかも誰も買わないんですよ！"
		,"LoveSpace": "プライバシーが守られ、 商品を保管しやすい 良い場所です。"
		,"LikeBiome": "私は {BiomeName} の 良い景色が好きです。 そして良い景色は 客を惹きつけます！"
		,"LoveBiome": "私は {BiomeName} を 愛しています。"
		,"DislikeBiome": "うーん、 {BiomeName} は 商売をするには 酷いですね。"
		,"HateBiome": "{BiomeName} の モンスターに商品を売るのは 無理だと思いますよ。"
		,"LikeNPC": "{NPCName} は 稼ぎが多いです。 私はお金持ちが好きです。"
		,"LoveNPC": "{NPCName} と一緒に居たいですね。"
		,"DislikeNPC": "{NPCName} は ケチで物を買わないのが 嫌です。"
		,"HateNPC": "{NPCName} の ひどい性格には 辟易しています！"
		,"LikeNPC_Princess": "{NPCName} は 私の店ごと 買い取ってくれる かもしれません！ 感じの良い方 ですし。"
	}
	,"TownNPCMood_Nurse": {
		"Content": "私の脈拍・体温・呼吸は正常よ。 これが聞きたかったの？"
		,"NoHome": "家がないと本当に 機嫌が悪くなるの。"
		,"FarFromHome": "家から遠くて 歩くのが嫌だわ。"
		,"DislikeCrowded": "ねえ、 ここの社会的な距離感の なさが嫌になるわ。"
		,"HateCrowded": "ああっ！ こんな大人数を一箇所に 詰め込むなんて… 不健康で嫌よ！"
		,"LoveSpace": "この部屋のパーソナルスペースは まったくもう、 素晴らしいわ。"
		,"LikeBiome": "毎日運動する場所が、 美しい {BiomeName} なのは素敵ね。"
		,"LoveBiome": "{BiomeName} は 大好きよ。"
		,"DislikeBiome": "オエッ。 {BiomeName} の 病的なところ、 嫌いなのよね。"
		,"HateBiome": "ウゲー… {BiomeName} は カビ臭い！ 不潔すぎ！ 気分が悪くなるわ！"
		,"LikeNPC": "{NPCName} は 頭が良くて、 それに好感が持てる うっかり者ね。"
		,"LoveNPC": "え、 {NPCName} ？ 片思いなんてしてないわ！ してないったら！ ちょっと黙ってて！"
		,"DislikeNPC": "{NPCName} は あまり好きじゃないわ。 ちょっと合わないっていうか…"
		,"HateNPC": "あー {NPCName} の 治療が嫌だわ。 ホントに難しいのよ！"
		,"LikeNPC_Princess": "診察中に誤って {NPCName} の肩を 脱臼させたの… 彼女は逆に、 ご迷惑をかけましたと 私に謝罪したのよ！"
	}
	,"TownNPCMood_Painter": {
		"Content": "うん、 気分がいいかも。 どうしたの？"
		,"NoHome": "泊まるところが ないんだよ！"
		,"FarFromHome": "ペンキが足りないんだけど、 部屋が遠すぎる、 ね？"
		,"DislikeCrowded": "絵を描いている時、 周りの人がうるさいのは 嫌だな。"
		,"HateCrowded": "騒がしい人ごみは 嫌いだけど、 いつになったら平和で 静かになるんだろう？"
		,"LoveSpace": "この静かな生活空間は、 壁画に集中するのに十分だね。"
		,"LikeBiome": "{BiomeName} には 新しい絵の具を混ぜるための 材料がたくさんあるね。"
		,"LoveBiome": "僕は {BiomeName} が 好きなんだ。"
		,"DislikeBiome": "なんで {BiomeName} が 好きじゃないのかって？ それは退屈だから。 緑？ 茶色？ それだけ？"
		,"HateBiome": "うわ、 {BiomeName} はいやだ！ ここから離してくれ！"
		,"LikeNPC": "{NPCName} と 僕は同じ色合いのピンクが 好きなんだ！ 僕の中では 友達認定だよ！"
		,"LoveNPC": "僕は {NPCName} を どうしても 描いてみたいんだ… もちろん色鮮やか だから！"
		,"DislikeNPC": "{NPCName} は 僕の好みには あまりにも合わない感じ。 冴えないタイプの人と 付き合うのは嫌だね。"
		,"HateNPC": "{NPCName} が いるのが 嫌だなあ。"
		,"LikeNPC_Princess": "{NPCName} に依頼されて、 玉座の間の屋根 に 壁画を描く ことになったんだ！"
	}
	,"TownNPCMood_DyeTrader": {
		"Content": "私かい？ ファイン、ファインさ。"
		,"NoHome": "いや、 これではダメだ。 私の場所が必要なんだ。"
		,"FarFromHome": "私の店から こんなに離れていては 鮮やかな色が作れる 訳がない！"
		,"DislikeCrowded": "私は人混みが本当に嫌いだ、 彼らが私の 鮮やかな色のために ここにいるのであれば 話は別だが！"
		,"HateCrowded": "ビジネスでない時は、 一人の方が良いと思わないか？ この密集した感じ、まったく不愉快だ！"
		,"LoveSpace": "愛する友よ、 この宮殿はスルタンのように 静かに眠れる！"
		,"LikeBiome": "ああ、 {BiomeName} は 本当に良い。 故郷を思い出す。 とても気に入っているのさ。"
		,"LoveBiome": "私は {BiomeName} を 愛しています。"
		,"DislikeBiome": "ああ、 {BiomeName} は 刺激が ない。 嫌だ嫌だ。"
		,"HateBiome": "いまいましい。 {BiomeName} が 私のパレットから 色を失わせている！"
		,"LikeNPC": "{NPCName} は 鮮やかで商売上手な目を していて、 好ましい。 そうでしょう？"
		,"LoveNPC": "私は {NPCName} と一緒にいるのが好きです。"
		,"DislikeNPC": "やれやれ、 あの {NPCName} は 色気もセンスもない、 好きになれない。"
		,"HateNPC": "あの不愉快な {NPCName} が 本当に、 本当に、 憎らしい。"
		,"LikeNPC_Princess": "{NPCName} のドレスの色合い。 それは 私が今までに見てきたもの よりも深く、 また鮮やかだ！"
	}
	,"TownNPCMood_PartyGirl": {
		"Content": "最高のパーティームードに なってきたわね！"
		,"NoHome": "パーティーの準備は できているわ。 でも二次会のための 家がないのよ。"
		,"FarFromHome": "パーティーの引き出物、 家に忘れたあ。 うわー、 結構遠い！"
		,"DislikeCrowded": "ここたくさんの人が いるけど、 誰もパーティーを していないのが気に 食わないんだよね～。"
		,"HateCrowded": "うわー、 人が多いなー、 パーティじゃないと 嫌だなー。"
		,"LoveSpace": "ここ全部私の？ なら最ッ高の パーティーを開くわ！ わたしのためにも！"
		,"LikeBiome": "わたしが {BiomeName} が 好きな理由わかる？ それは、 虹があるから！"
		,"LoveBiome": "{BiomeName} が ダイスキ！"
		,"DislikeBiome": "うわー、 {BiomeName} ってダサくない？ こんなところでどうやって パーティーができるの？"
		,"HateBiome": "ちぇっ、 {BiomeName} が 完全に私のパーティーの 雰囲気を壊してるよ。"
		,"LikeNPC": "わたし、 {NPCName} のパーティーのやり方 ホント好き！"
		,"LoveNPC": "{NPCName} は わたしのパーティーを いつもキラキラさせて くれるから大好きよ！"
		,"DislikeNPC": "{NPCName} は パーティーをしらけさせると 思うの。"
		,"HateNPC": "{NPCName} が いつも二次会をやめさせようと するのがイヤ。 最悪！"
		,"LikeNPC_Princess": "そう！ {NPCName} は ピンク色と 明るくてキラキラしたものが 大好き。 パーティもね！"
	}
	,"TownNPCMood_Angler": {
		"Content": "ボクは元気だよ。 んじゃさっさと 魚を取ってきて！"
		,"NoHome": "ボクは子供だ。 だからキミはボクに 家を与えなきゃ、 だよね！？"
		,"FarFromHome": "家に釣り竿忘れて きちゃったよ。 あそこに あるんだよなあああああっ！ クソーっ！"
		,"DislikeCrowded": "ここの奴らが魚を 怖がらせるんだよ。 だからさっさと どっかにやってよ！"
		,"HateCrowded": "ボクはこの よそ者どもが嫌い… ボクの魚が死ぬほど 怖がってるんだよ！"
		,"LoveSpace": "やった！ 魚と二人きりになれる！"
		,"LikeBiome": "なんで {BiomeName} がお気に入りの 場所かって？ クールな魚がやまほど いるからだよ！"
		,"LoveBiome": "ボクは {BiomeName} が 大好きさ。"
		,"DislikeBiome": "アタマは大丈夫？ もーっ！ {BiomeName} に 魚なんているわけないよっ！"
		,"HateBiome": "やあ、 おバカ君！ {BiomeName} に いる魚は、 どいつもこいつも ボクを殺そうとして くるんだ！"
		,"LikeNPC": "{NPCName} は 他のひとと違って、 何してるかひと目で 分かるし好きだな。"
		,"LoveNPC": "ボクは {NPCName} のそばにいるのが すっごい好き。"
		,"DislikeNPC": "ボクは {NPCName} が 嫌い。"
		,"HateNPC": "ボクは {NPCName} と、 ガキ扱いする奴らが 大ッ嫌いだよ！"
		,"LikeNPC_Princess": "{NPCName} は 魚じゃないけど、 ボクを イライラさせないんだ！ マジでイケてるよね。"
	}
	,"TownNPCMood_Stylist": {
		"Content": "今日はさわやかな気分ね。"
		,"NoHome": "ごめんね、 ステーションを設置する 場所がないと、 髪をスタイリング できないの。"
		,"FarFromHome": "道具から 離れすぎているわ…"
		,"DislikeCrowded": "クモの音がするの？ ああ、 お隣さんがうるさいだけ。 嫌ね。"
		,"HateCrowded": "周りにたくさんの 人がいることに どうしても耐えられなくて、 集中できないわ。"
		,"LoveSpace": "素敵ね、 気を散らさずに技術を 勉強できるようになったわ。"
		,"LikeBiome": "{BiomeName} で 髪を切るのは落ち着いた 雰囲気でいいわね。"
		,"LoveBiome": "{BiomeName} を 愛してるわ。"
		,"DislikeBiome": "ハァ、 私はここ {BiomeName} が 好きじゃないわ、 こんなに寒いのに 誰が髪の毛を 見せびらかすの？"
		,"HateBiome": "うわ、 {BiomeName} の せいで髪の毛が 傷みまくってるわ！"
		,"LikeNPC": "{NPCName} は 強くてミステリアス。 そういうところが好き。"
		,"LoveNPC": "{NPCName} は ルックスがよくて… エキゾチックで… 私は恋してるような 気がする…"
		,"DislikeNPC": "{NPCName} の 仕事をしようとしたけど、 失礼にも断られたわ、 頑固な人は嫌い！"
		,"HateNPC": "私は {NPCName} が 大嫌い、 どうして育毛しないの？"
		,"LikeNPC_Princess": "{NPCName} の髪、 完璧すぎて触る気にもなれないわ！"
	}
	,"TownNPCMood_Demolitionist": {
		"Content": "ふうむ、 今日は爆発する気が せんな！"
		,"NoHome": "住むところが ないみたいだが、 俺が吹き飛ばしたのか？"
		,"FarFromHome": "もっと爆弾が必要だな、 家に帰った時に 置いてきちまったか。"
		,"DislikeCrowded": "安全上の理由は もちろんだが、 この人の多さは良くないぞ…"
		,"HateCrowded": "人が多すぎるぞ！ ダイナマイトを作るのに 一歩間違えれば… フウム、 その結果は歓迎 されないだろう。"
		,"LoveSpace": "ほう、 誰も周りにいないか。 これで新しい爆弾を 試すことができるぞ。 手足の墓場を作らずにな！"
		,"LikeBiome": "ドワーフは自然と {BiomeName} に 惹かれる。 我らに流れる血が そうさせるのだ。"
		,"LoveBiome": "{BiomeName} が 最高だ。"
		,"DislikeBiome": "{BiomeName} には 我慢ならん！ ここで導火線に点火すると 問題が起きちまう！"
		,"HateBiome": "{BiomeName} は 死と悪意の臭いがするぞ。 どこでもいいから 穴を爆破するか！"
		,"LikeNPC": "{NPCName} は 良い友だ。 火薬を積むのを 手伝ってくれるしな！"
		,"LoveNPC": "コンテナいっぱいの ファイアボール を 達者に扱う {NPCName} は、 とても気に入ってるぞ。"
		,"DislikeNPC": "{NPCName} を ロケットに縛り付けて、 どうなっちまうかを 見たいもんだ！"
		,"HateNPC": "{NPCName} が そばにいるのは 嫌になる。"
		,"LikeNPC_Princess": "ん？ {NPCName} だと？ ニトロの新銘柄 だったか？ …おう、彼女か。 あれはよい娘だ！"
	}
	,"TownNPCMood_Dryad": {
		"Content": "すべては平和ね。 台無しになんてしないで。"
		,"NoHome": "自然はすべて私の家、 ってのもいいのだけれど、 建てた家も悪くないと思うわ。"
		,"FarFromHome": "根元から離れた ところにある花は、 なかなか育たないわよ！"
		,"DislikeCrowded": "このあたり、 人の密度がかなり高くない？ 私だけ？ やな感じね…"
		,"HateCrowded": "他にもたくさんの人が 一箇所に詰め込まれているの？ 下草がだめに なってしまうわ！ もう！"
		,"LoveSpace": "独居もたまには 悪くないわ。 成長したり、 呼吸したりする 余裕があるから。"
		,"LikeBiome": "{BiomeName} で 木にキスをしたわ。 とても良いところね。"
		,"LoveBiome": "私は {BiomeName} を 愛しているわ。"
		,"DislikeBiome": "{BiomeName} は まぁ嫌いね。 どれだけ生命を 欠いているやら。"
		,"HateBiome": "この環境は 非っ常に不愉快だわ。 {BiomeName} はね、 私の大敵なの！"
		,"LikeNPC": "私を全肯定してくれる {NPCName} は 好きね！"
		,"LoveNPC": "私は {NPCName} のそばいるのが とっても好きね。"
		,"DislikeNPC": "{NPCName} は、 他の生き物への敬意が 感じられない。 好きじゃないわね。"
		,"HateNPC": "{NPCName} は 自然を壊して嫌！"
		,"LikeNPC_Princess": "{NPCName} は、 この世界に生きる すべての人に 秩序と平和を もたらすわ。"
	}
	,"TownNPCMood_DD2Bartender": {
		"Content": "俺は 夢に向かって 生きてるんだ。"
		,"NoHome": "磨くバーがないと 場違いな感じがするな。"
		,"FarFromHome": "誰かが飲みたいって 時に備えて、 俺の場所に戻った方が いいかもな。"
		,"DislikeCrowded": "大人数集まって 住むのは好きじゃない。"
		,"HateCrowded": "言いたくはないが 人の多すぎる 地区は 嫌いだ。"
		,"LoveSpace": "やっと静かになってきた… バーテンダーとしては これは贅沢だな！"
		,"LikeBiome": "あぁ、 {BiomeName} … ここはいいな、 個性があって。"
		,"LoveBiome": "俺は {BiomeName} を 愛している。"
		,"DislikeBiome": "{BiomeName} は 苦いな。"
		,"HateBiome": "これも侵略なのか？ あぁ、 なんだ {BiomeName} にいるだけか…… 余計ひでえ！"
		,"LikeNPC": "俺は {NPCName} が 好きだ。 生まれで人は わからないって ことだな。"
		,"LoveNPC": "{NPCName} は イカれた小っちゃな 酒飲みだ、 大好きだ！"
		,"DislikeNPC": "俺は {NPCName} が嫌いだ、 エーテリアの暗いものと 同じような雰囲気を 感じる。"
		,"HateNPC": "{NPCName} の エキセントリックで ナルシストな性格は、 本当にテーブルを 叩きつけたくなるな。"
		,"LikeNPC_Princess": "{NPCName} は 俺が前にいた場所でも 偉大な統治者に なるだろうな。"
	}
	,"TownNPCMood_ArmsDealer": {
		"Content": "俺は大丈夫だ、 相棒！"
		,"NoHome": "泊まるところが ねーぜ！ 相棒！"
		,"FarFromHome": "こんな遠くで商売するのは 好きじゃねえな。"
		,"DislikeCrowded": "（シーーッ） 近くに何人かいるようだ、 ここじゃ取引できねえな。"
		,"HateCrowded": "こんな人数に 見られてちゃ 何もできやしねえ。"
		,"LoveSpace": "プライバシー は 必要だぜ？ あんたは 理解してる ようだがな！"
		,"LikeBiome": "{BiomeName} は 人里離れていて ビジネスには最適だぜ。 ご想像通りの ビジネスによ。"
		,"LoveBiome": "俺には {BiomeName} は 居心地がいいぜ。"
		,"DislikeBiome": "あー、 いや、 {BiomeName} は すごく不愉快だ。"
		,"HateBiome": "{BiomeName} は 嫌いだ。… 仮にあんたが 獲物でも 、ここでの狩りは そんなに楽しめねえ。"
		,"LikeNPC": "ヘッ、{NPCName} みたいな物騒でクールな 奴は好きだぜ。"
		,"LoveNPC": "{NPCName} が …えーっと 俺のこと気にしたりしてたか？"
		,"DislikeNPC": "{NPCName} め、 うっとうしい。"
		,"HateNPC": "いつか {NPCName} を 射的の的にして やりたいぜ。"
		,"LikeNPC_Princess": "予想外だったけどよお。 知ってるか？ {NPCName} は 銃の扱い方を 心得てやがる！"
	}
	,"TownNPCMood_GoblinTinkerer": {
		"Content": "今は大丈夫だよ。"
		,"NoHome": "ゴブリンには普通 いい家なんか 必要ないけど、 僕はそうじゃないんだ。"
		,"FarFromHome": "新しい発明を したいんだけど、 僕の家はあっちの方だよ！"
		,"DislikeCrowded": "えーと… 僕の周りには尋常じゃない 人数が集まってる みたいだね？"
		,"HateCrowded": "こうも混雑してると、 ゴブリンの戦争収容所での 悪い思い出がよみがえるよ。 大嫌いだ。"
		,"LoveSpace": "完璧だね。 迷惑な隣人もいないし、 僕のニーズを十分に 満たしているよ。"
		,"LikeBiome": "{BiomeName} は 静かに開発をするには いい場所だね。 めっちゃ、 いいねボタン 押したい！"
		,"LoveBiome": "僕は {BiomeName} が 大好きだ。"
		,"DislikeBiome": "{BiomeName} は 嫌いだ、 仕事の邪魔になる うるさくて迷惑な害虫が いっぱいいる!"
		,"HateBiome": "{BiomeName} は大嫌いだよ。 その気持ちを抑えている間は、 小物を一つにまとめる ことすらできないんだ！"
		,"LikeNPC": "{NPCName} は 物を組み合わせることの 楽しさを理解しているから、 敬意を払えるよ！"
		,"LoveNPC": "{NPCName} が 僕の心の機能を 狂わせるんだ。 でも、 すっごくいい気分だよ！"
		,"DislikeNPC": "{NPCName} からは、 暗い秘密を含んで いるかのような、 不気味な雰囲気を感じるんだ。 好きになれないんだよねえ。"
		,"HateNPC": "{NPCName} に 恥をかかされたよ。 大嫌いだ。 男のゴブリンには 髪が生えないんだよ！"
		,"LikeNPC_Princess": "{NPCName} は 僕の発明品が好きで、 友好的なゴブリンは みんな歓迎する と 言ってくれたんだ！"
	}
	,"TownNPCMood_WitchDoctor": {
		"Content": "我、 満足を体現す。"
		,"NoHome": "小屋でよい。 誰も彼もが静寂を 好むわけでなし。"
		,"FarFromHome": "我が平穏の地から 遠く離れてしまった。"
		,"DislikeCrowded": "人が近くにいると、 我の魔力を乱す。"
		,"HateCrowded": "汝のような者が 多く集まり、 我の心に悪意を育てている。"
		,"LoveSpace": "周囲の存在に 邪魔されることなく、 強いエネルギーが流れ、 とても快適だ。"
		,"LikeBiome": "{BiomeName} は、 我のブードゥー スピリッツの中心だ。 ほかの地は考えられない。"
		,"LoveBiome": "{BiomeName} は 良き処だ。"
		,"DislikeBiome": "{BiomeName} の 魔術は真の清浄さではなく、 抑圧の魔術だ。 我の心と魂は 激怒している。"
		,"HateBiome": "{BiomeName} とすべての生物に蔓延する 邪悪なものを感じる。"
		,"LikeNPC": "{NPCName} は 同じような自然の 精神を持つ。 我の魂はかの者の 前では安らかだ。"
		,"LoveNPC": "{NPCName} のそばにいるのが 心地よい。"
		,"DislikeNPC": "我は {NPCName} の 行いが嫌いだ。 真の治癒は金属や ガラスからは得られない。"
		,"HateNPC": "穢れた大地から 忌まわしいものが湧き出て、 我は怒りに満たされる。 {NPCName} のことだ。"
		,"LikeNPC_Princess": "{NPCName} の 我が同胞への配慮。 深く感謝する。"
	}
	,"TownNPCMood_Clothier": {
		"Content": "だいたい、 普通ってなんですかね？"
		,"NoHome": "家はありませんか？  私は刑事事件の対象には なりたくない！"
		,"FarFromHome": "スパイグラスを取り出して、 私の家を探すのはとても 退屈な作業だよ。"
		,"DislikeCrowded": "住民の人たちは、 私を厄介者の重荷として 仕方なく受け入れて いるのだろうね。"
		,"HateCrowded": "過密状態はさながら、 満員のパーティのようだね。"
		,"LoveSpace": "私は人気者じゃあないけどね、 静けさとは何かくらいは分かるさ。"
		,"LikeBiome": "百聞は一見にしかずだが、 {BiomeName} の中が一番好きなものだよ。"
		,"LoveBiome": "{BiomeName} が 大好きだよ。"
		,"DislikeBiome": "{BiomeName} は 暗い部屋が足らなくなるね。"
		,"HateBiome": "{BiomeName} にいると、 魂が引き裂かれるような 気分になるよ。 まるで、 善と悪の戦いに 巻き込まれてるような。"
		,"LikeNPC": "よく分からないけど、 {NPCName} は 魅力的な人だと思うよ。"
		,"LoveNPC": "{NPCName} かい？ あんなに美味しそうなものを 見たのは初めてだよ。"
		,"DislikeNPC": "なぜか {NPCName} の そばにいると不安になる。"
		,"HateNPC": "なぜかわからないけど、 {NPCName} が 嫌いなんだ。"
		,"LikeNPC_Princess": "{NPCName}ほど、 何事にも 良い面が 見えている人は いない！"
	}
	,"TownNPCMood_Mechanic": {
		"Content": "万事正常に稼働中。 え、私？ 元気だよ！"
		,"NoHome": "配線するための建物が 欲しいんだけど。"
		,"FarFromHome": "あ、 ここ電波来てないんだ。 うーん。"
		,"DislikeCrowded": "電気が付いたり 消えたりしてるのが 気になるなあ。 送電網に負荷が かかってるのかな？"
		,"HateCrowded": "もう！ こんなにいっぱい人がいるなら もっと大容量の 電源が必要だよ！"
		,"LoveSpace": "完璧。 インフラ整備の邪魔を する人もいないし。"
		,"LikeBiome": "{BiomeName} は 機械のオーバーヒートもないし、 エネルギーのフローも 効率的だし、 良い所だよ。"
		,"LoveBiome": "{BiomeName} 大好き！"
		,"DislikeBiome": "{BiomeName} は嫌い。 嫌な目にあったことを 思い出すの！"
		,"HateBiome": "{BiomeName} に 居るといつも何かに 見られてる気分に なるんだよ。 すごい居心地悪いなあ。"
		,"LikeNPC": "私は他の誰より {NPCName} の ことを分かってるよ。"
		,"LoveNPC": "うーん、 {NPCName} が 居ると心臓の動きが おかしくなるんだよね。 点検してもらわないと！"
		,"DislikeNPC": "{NPCName} は いつも私に干渉して くるから嫌い！"
		,"HateNPC": "{NPCName} は 女性をどう扱っていいか 全くわかってないよ！"
		,"LikeNPC_Princess": "{NPCName} が ポンプの１つを起動してくれたんだ、超感動したよ！"
	}
	,"TownNPCMood_TaxCollector": {
		"Content": "何だ？ ワシは機嫌がいいぞ。"
		,"NoHome": "ワシのような金持ちに 家がないと？ バカげている！"
		,"FarFromHome": "カーッ！ 家に帰ってワシの 金を数えるのだ。 失せろ！"
		,"DislikeCrowded": "ワシはキサマに 言っておく、 近所の輩が気にいらんと！"
		,"HateCrowded": "惨めで貧しい たかり屋共に伝えろ、 ワシは人ごみが嫌だとな。"
		,"LoveSpace": "ようやっと、 恥知らずな田舎者ども から解放された！"
		,"LikeBiome": "{BiomeName} に 住んでいると、 ワシは一人になれる。 快適だ。"
		,"LoveBiome": "{BiomeName} はまったくもって良い。"
		,"DislikeBiome": "{BiomeName} は 何故こうも神経に 障るのだ？ バカげた話だ！"
		,"HateBiome": "ワシからすれば、 {BiomeName} は 陰気どころではない！ カーッ！"
		,"LikeNPC": "ワシも老いぼれたものだ！ 派手な者には頭が痛くなるが、 なぜか {NPCName} は悪く思わん。"
		,"LoveNPC": "{NPCName} には 感服する。 誰だろうと、 金の価値を真に 分かっている者を ワシは最も尊敬する！"
		,"DislikeNPC": "{NPCName} は 騒がしい、 彼奴らを遠ざけろ！"
		,"HateNPC": "{NPCName} は 好かん！ タダで物を配るなぞ正気か？"
		,"LikeNPC_Princess": "{NPCName} は姫だ。 税を払うべきでない。 …しかし、 意見を曲げなんだ。"
	}
	,"TownNPCMood_Pirate": {
		"Content": "ヤー。 俺は万事整っているぜ！"
		,"NoHome": "外海が真の故郷だが、 しばらく内陸にいると… 避難所が必要になる。"
		,"FarFromHome": "家に帰ると ベッドとラム酒が 俺を呼ぶんだ。"
		,"DislikeCrowded": "やめてくれ！  俺の船に 陸者が 多すぎて 気分が悪い。"
		,"HateCrowded": "お前ぇは 反乱が起きるのが 嫌なのか？ 俺の 営舎に近い ごろつきが 多すぎんだろ。"
		,"LoveSpace": "これは 自分の ガレオン船を 持っているようなものだな、 相棒！"
		,"LikeBiome": "ハーハーハー、 友よ、 {BiomeName} は 俺の本当の故郷だ！"
		,"LoveBiome": "俺は {BiomeName} が 好きだ。"
		,"DislikeBiome": "うげっ、 {BiomeName} は 俺のスタイルには少し窮屈で、 お前らは不潔だ！"
		,"HateBiome": "あぁあ、 {BiomeName} は 今まで行った中で 一番汚ったねえトコだ！"
		,"LikeNPC": "はっはっは！ {NPCName} は 最高のラム酒を 持ってきてくれる。"
		,"LoveNPC": "おう、 俺は {NPCName} を 連れて行くぜ、 陸者。 海の子を育てるのが 大好きなんだ！"
		,"DislikeNPC": "髭を切ろうとする {NPCName} は 好きじゃねえことを 知ってるだろ？俺ぁ クズ野郎の 喉を 切っちまった ことがあるんだ。"
		,"HateNPC": "俺ぁ {NPCName} に 板歩きをさせてやりたいね、 船乗りさんよ！ あの甘ったれとクセェのが 我慢ならねえ！"
		,"LikeNPC_Princess": "ヤー。 {NPCName} なら 海で 高額の報酬を 得られるだろうよ… そりゃ 冗談としても、 彼女は 俺の お気に入りだ。"
	}
	,"TownNPCMood_Wizard": {
		"Content": "魔力を感じるぞい。"
		,"NoHome": "ワシの家はどこじゃ？ ここはどこじゃ？ お前さんは？ ワシは？"
		,"FarFromHome": "ワシの家がどこかに あったはずじゃ…"
		,"DislikeCrowded": "騒がしい者らには 遠くへ行ってもらえんか？ ダメ？ 残念だのう。"
		,"HateCrowded": "この密集状態が ワシの魔力を 弱め始めておるぞ！ 直感じゃ。"
		,"LoveSpace": "人里離れた 塔の上で 魔法の練習をしていた 昔を思い出すのう！"
		,"LikeBiome": "{BiomeName} の 何ぞ 気に入らん所があるか？ ユニコーンと 虹もあるぞい。"
		,"LoveBiome": "ワシは {BiomeName} を 愛しとるぞ。"
		,"DislikeBiome": "{BiomeName} は良くないのう。 こういうところでは 魔法がうまく流れんのじゃ。"
		,"HateBiome": "{BiomeName} の 忌まわしいものが ワシを悩ませる。 さながら魔法の最も暗い形じゃ。"
		,"LikeNPC": "{NPCName} と ワシは 非常に長い歴史を 共有しとる。 相補う見識は良いものじゃ。"
		,"LoveNPC": "{NPCName} とは 話が弾むのう。"
		,"DislikeNPC": "{NPCName} は 乱すべきでないモノに 触れておる。 良くないのお。"
		,"HateNPC": "あの憎たらしい {NPCName} は完全に魔法を 忌み嫌っとる。"
		,"LikeNPC_Princess": "{NPCName}じゃと？ 姫様がおったか！ なんとのう…\nあのお方は、ようなさっておられるわい。"
	}
	,"TownNPCMood_Steampunker": {
		"Content": "あたいは元気さ。"
		,"NoHome": "とどまる場所がぜひとも欲しいね。"
		,"FarFromHome": "家から遠く離れてて、 大事なモーターを忘れた！"
		,"DislikeCrowded": "奴ばらに 囲まれるのは 好きじゃないんだ。 全くもう。"
		,"HateCrowded": "ああ、 人混みは絶対に嫌だ！"
		,"LoveSpace": "あたいと蒸気機関のための 部屋がたっくさんあるな！"
		,"LikeBiome": "あたいにはここ {BiomeName} の 広々とした空間 が ベスト。ジェットパックの ジョイライド にも 最適さ。"
		,"LoveBiome": "あたいには {BiomeName} が 一番だ。"
		,"DislikeBiome": "{BiomeName} の 低木とごちゃごちゃした もんが マジであたいの ギアを壊しちまうんだ。"
		,"HateBiome": "マジな話、 {BiomeName} は 非文明的で見苦しいね。 それに言うまでもないが あぶねー。"
		,"LikeNPC": "{NPCName} は、 発明品の仕上げを 手伝ってくれる イイやつさ。"
		,"LoveNPC": "{NPCName} は ユニークだし マジ興味深い。 ヤバい。"
		,"DislikeNPC": "{NPCName} は 異世界すぎ。 あたいには、合わないね。"
		,"HateNPC": "{NPCName} の 近くにいるのが 耐えられない。 嫌すぎ。"
		,"LikeNPC_Princess": "陽気な {NPCName} が 新テレポーターを試したいと 志願してくれたんだ。熱心な アシスタントは 好きだね！"
	}
	,"TownNPCMood_Cyborg": {
		"Content": "全神経機能ガ快適ニ 動作シテイルヨウダ。"
		,"NoHome": "エラー404： 生活設計ガ 見ツカリマセン。"
		,"FarFromHome": "データセンターノ信号範囲ヲ 越エテ サマヨッテ シマッタヨウダ。"
		,"DislikeCrowded": "他ノ生命体ガ 多スギル。 ネガティブナ感情ノ 神経パターンヲ 経験シテ イマス。"
		,"HateCrowded": "生命体ノ 限界ヲ超エタ。 神経機能ガ オーバーロード。 翻訳：コレ イヤ。"
		,"LoveSpace": "近接生命反応ゼロ。 ジツニ幸セダ。"
		,"LikeBiome": "私ノ人工頭脳ハ {BiomeName} ノ 温度勾配デ 最適ニ 機能スル。 コレハ イイゾ。"
		,"LoveBiome": "{BiomeName} ハ 大好キダ。"
		,"DislikeBiome": "合成外骨格内ニ 動植物ガ 侵入シテ キテイル。 {BiomeName} ハ 好マシク ナイ場所ダ。"
		,"HateBiome": "{BiomeName} ニテ 圧倒的ナ数ノ 敵性生命体ノ 反応ヲ検出。"
		,"LikeNPC": "{NPCName} ハ 私ヲ 他ノ人間ノヨウニ 好意的ニ 扱オウト シテクレル。 評価ニ 値シマス。"
		,"LoveNPC": "{NPCName} ト 一緒ニ居タイ。"
		,"DislikeNPC": "{NPCName} ハ 標準カラ逸脱シタ 私ノ存在ヲ 理解シテイナイ。 オ互イ、 否定的ナ感情ヲ 抱イテイル。"
		,"HateNPC": "{NPCName} ノ 機能ヲ 科学的ニ分析 デキナイ。 中立的機能ガ オーバーロード。 翻訳：コレ イヤ。"
		,"LikeNPC_Princess": "{NPCName} 解析： 記録上 最モ健全ナ 炭素の生命体 デス。"
	}
	,"TownNPCMood_SantaClaus": {
		"Content": "わしは陽気じゃ！"
		,"NoHome": "好きな時に北極に 帰れないんじゃよ、 ホッホッホ！ 仮設住宅を見つけて くれるかの？"
		,"FarFromHome": "ごきげんいかがかのう。 今は 仮住まいは  遠くに あるのう！"
		,"DislikeCrowded": "エルフだけがいる場所で 一人で仕事を するのが良いの。 気が散るのは嫌いじゃ！"
		,"HateCrowded": "これはかなりの大人数じゃな。 一人一人がいたずら リストに載っとる。 重い石炭の袋を 運ぶのは嫌じゃのう！"
		,"LoveSpace": "ホッホッホ！ わしとエルフだけ。 これは わしの遠隔作業場として 最適な場所じゃ。"
		,"LikeBiome": "わしは {BiomeName} が 好きじゃ。"
		,"LoveBiome": "ここが大好きじゃ！ 驚いた？ わしが {BiomeName} を 嫌いだと 誰が思ったのかの?"
		,"DislikeBiome": "わしは {BiomeName} が 嫌いじゃ。"
		,"HateBiome": "わしを {BiomeName} のようなひどい場所に 置いたからの、 きみをいたずら リストに加えたぞ。"
		,"LikeNPC": "わしは {NPCName} の近くが好きじゃ。"
		,"LoveNPC": "わしは {NPCName} のそばにいるのが 大好きじゃ。"
		,"DislikeNPC": "わしは {NPCName} の近くにいるのが 嫌いじゃ。"
		,"HateNPC": "わしを信じてくれない人は 嫌いじゃ！ 例えば {NPCName} は、知っておる中では最もダメじゃ！"
		,"LikeNPC_Princess": "ホッホッホ。 {NPCName} なら まず間違いなく 良い子リストの トップだろうよ。"
	}
	,"TownNPCMood_Golfer": {
		"Content": "元気ですよ！"
		,"NoHome": "クラブを飾る場所が 必要なんです。"
		,"FarFromHome": "コースを外れて 彷徨ってしまった みたいです。 賢明な方法では なかったですね。"
		,"DislikeCrowded": "ゴルフは独りで楽しむのが 一番のスポーツです。 自分の人生が そうでないのは残念です。"
		,"HateCrowded": "言いたくありませんが、 ここの人通りはかなり嫌です。"
		,"LoveSpace": "この空間を 独り占めすることほど、 良いことはないですね。"
		,"LikeBiome": "私は {BiomeName} が 好きです。 ゴルフに必要な機能を すべて備えています。"
		,"LoveBiome": "私は {BiomeName} を 愛しています。"
		,"DislikeBiome": "教えて下さい、 {BiomeName} みたいな所で ゴルフをするには どうすればいいんですか？"
		,"HateBiome": "{BiomeName} みたいな所を ぶらつくのはまったくもって 賢明ではないと思いますね。"
		,"LikeNPC": "{NPCName} と いつも楽しく遊んでいます。 良い人ですよ。"
		,"LoveNPC": "{NPCName} が 大好きです。 私のウォーターハザードが 返ってくるからです！ （注：個人の感想です）"
		,"DislikeNPC": "{NPCName} の 近くにいるのは 嫌いです。 不安になります。"
		,"HateNPC": "{NPCName} の 欲深さは大嫌いです。 このような世界に そんなものは必要ありません。"
		,"LikeNPC_Princess": "{NPCName} に ゴルフのコツを 教えようとしたんですが、 逆に彼女が 教えてくれたんです！気に入りましたよ。"
	}
	,"TownNPCMood_Truffle": {
		"Content": "とても幸せだ、 僕にしては。"
		,"NoHome": "安心して歓迎して もらえる場所が必要だよ。"
		,"FarFromHome": "家が遠すぎて 落ち着かないんだ。"
		,"DislikeCrowded": "周りに人が集まってくる この不安感が嫌なんだよ。"
		,"HateCrowded": "ああ嫌だ、 人が多すぎる… た…食べられや しないだろうか、 ねえ？"
		,"LoveSpace": "こんなに広い 自分の部屋が あるのは大好きだよ。 そんなにおかしいことかい？"
		,"LikeBiome": "家にいる気分だ。 まるで {BiomeName} と 一体化したかのようだよ。"
		,"LoveBiome": "{BiomeName} は 最高にいいね。"
		,"DislikeBiome": "僕は {BiomeName} が 好きじゃない。"
		,"HateBiome": "僕は {BiomeName} に なじめない、 生きていけやしない！"
		,"LikeNPC": "{NPCName} は、 僕が自然の一部で あるかのように敬意を 持って接してくれる。 それをどう感じてよいのか わからない。 好ましいと思う以外に。"
		,"LoveNPC": "不思議なことに {NPCName} が お腹を空かさずに僕と 話してくれるのが好きだ。"
		,"DislikeNPC": "{NPCName} は 何度も僕を食べようとした。 人間じゃなかったときでさえ！ どう考えたって 嫌いだよ。"
		,"HateNPC": "{NPCName} は 僕を変な材料で いっぱいのつぼに 投げ込もうとしたんだ。 最悪だった。"
		,"LikeNPC_Princess": "{NPCName} は 僕を食べようと しないから、 個人的に 悪くないと 思ってるよ。"
	}
	,"TownNPCMood_BestiaryGirl": {
		"Content": "調子は良いよっ！ ありがとね！"
		,"NoHome": "ええと、 もちろん動物の巣穴には 住めないよ。 家が必要だよ！"
		,"FarFromHome": "うーんと、 ちょっとホームシックかな。 それにペットにエサを あげないと！"
		,"DislikeCrowded": "周りに人が多くいると ちょっと不安だよ。 まぁ、 やめてほしいな。"
		,"HateCrowded": "ぎゃあ！ 周りのみんなに何か あるかもって心配するのが 嫌だっ！"
		,"LoveSpace": "自分の居場所が あるって最高なことね！ ホントに！"
		,"LikeBiome": "動物がスキ。 当然 {BiomeName} も スキ。 最高の場所だよ！ サイコー！"
		,"LoveBiome": "{BiomeName} は サイコーね。"
		,"DislikeBiome": "直感とかそういう 超自然的な理由なんだけど、 {BiomeName} は ホントに逃げ出したくなるよ。"
		,"HateBiome": "その {BiomeName} は キツネの子が持ってた 呪いの匂いがするよ。 その子が私を噛んだの！"
		,"LikeNPC": "もちろん {NPCName} は好き！ 産まれた頃から知ってる！"
		,"LoveNPC": "うまく言えないけど、 {NPCName} が 好き。 しっぽがあるからかな？"
		,"DislikeNPC": "{NPCName} の 非情さが気に入らない！"
		,"HateNPC": "{NPCName} は 嫌い！ 動物にひどいことするんだよ！"
		,"LikeNPC_Princess": "ね、{NPCName} が キツネの呪い を解く方法を 探させているって！ やったあ！"
	}
	,"TownNPCMood_BestiaryGirlTransformed": {
		"Content": "クルル… イイカンジ。"
		,"NoHome": "ぐわお！ イエ！ 今すぐ！"
		,"FarFromHome": "がるるる… イエ！ とおい！ かえれない。"
		,"DislikeCrowded": "がぁう！ ヒト！ おおすぎ！ イラつく！"
		,"HateCrowded": "ウゥゥゥ… イヤ。 ムリ。 せまい！"
		,"LoveSpace": "クルルル… ひろびろ。 しあわせ。"
		,"LikeBiome": "{BiomeName} … はしれる！ あそべる！ かれる！ イーッ！"
		,"LoveBiome": "スキ。ばしょ。… {BiomeName} 。 うれしい。"
		,"DislikeBiome": "くんくん… {BiomeName} 。 匂い。 ワルイ。"
		,"HateBiome": "ぐぎぎぎ、 {BiomeName} …  キライ。 やなとこ。"
		,"LikeNPC": "{NPCName} … いい、 かんじ。"
		,"LoveNPC": "すごく… スキ… {NPCName} 。 イェイ！"
		,"DislikeNPC": "{NPCName} … ふんいき、 きらい！ グルルル。"
		,"HateNPC": "うがーっ！ {NPCName} 、 きらい。 いかり。 ムカムカ！"
		,"LikeNPC_Princess": "{NPCName}…。ピンク。イイ。"
	}
	,"TownNPCMood_Princess": {
		"Content": "あらゆる事柄は すべて掌握しておりますわ、 私の 忠臣さま！"
		,"NoHome": "泊まれる所が ないようですわね。 よろしければ、 ピンク色の場所は ございませんこと？"
		,"FarFromHome": "あら… 少しばかり 迷ってしまいましたわね。 素敵な お散歩は いかがでしょうか？"
		,"DislikeCrowded": "国民の皆様の そばにいることは、喜ばしいこと ですが、 必ずしも 皆様にとって そうでないことは 承知しておりますわ。"
		,"HateCrowded": "私は 皆様に 囲まれているのが 大好きです。 ただ、 過密状態で 皆様が 不満なのは よろしくありませんわね。"
		,"HateLonely": "あら… 少々寂しく思います。 よろしければ、 もう少し 皆様のそばに 居させて いただけないでしょうか？"
		,"LikeBiome": "花は心地よく、 丘は美しく、 砂に温かみを感じます。 お友達と 一緒にいると、 どんな場所も 素敵ですわ。"
		,"LoveBiome": "{BiomeName} は とっても素敵です。"
		,"DislikeBiome": "{BiomeName} は 少々苦手ですわ。"
		,"HateBiome": "まあ！ この場所は 改良した方が よろしいでしょう。 王族にはもちろん、 どなたにもふさわしくない 場所ですわ！"
		,"LikeNPC": "{NPCName} さまは 素敵ですよ。"
		,"LoveNPC": "私は {NPCName} さまを お慕い申し上げております。"
		,"DislikeNPC": "{NPCName} さまが 苦手、というわけではありませんわ。"
		,"HateNPC": "どうしても {NPCName} さまを 憎む気には なれませんわね。"
		,"LoveNPC_Guide": "{NPCName} さまは 本当に 良い方ですわね。"
		,"LoveNPC_Nurse": "{NPCName} さまは、私が 傷ついているとき 良くしてくださります。"
		,"LoveNPC_Merchant": "{NPCName} さまは いつも 私が必要とするものを 無償で 提供してくださります。"
		,"LoveNPC_Dryad": "{NPCName} さまは 自然と触れ合っていて、 とっても素敵ですわ。"
		,"LoveNPC_ArmsDealer": "{NPCName} さまは 実は 思いやりのある方 ですわ。"
		,"LoveNPC_Demolitionist": "{NPCName} さまは まさに ”ダ・ボム” ですわね。 フッフフ！"
		,"LoveNPC_Clothier": "{NPCName} さまは時折、 悲しそうな顔を しておりますわ。 でも とても良くしてくださるんです。"
		,"LoveNPC_Wizard": "{NPCName} さまは 大変聡明でいらっしゃいます。 あの方の判断は 完全に 信頼しておりますわ。"
		,"LoveNPC_GoblinTinkerer": "{NPCName} さまは とっても素敵な ガジェットを 作っておりますわ。"
		,"LoveNPC_Mechanic": "{NPCName} さまは 何でも修理なされます。 尊敬しておりますわ。"
		,"LoveNPC_SantaClaus": "{NPCName} さまは とっても陽気ですね。 プレゼントを 差し上げたくなってしまいますわ！"
		,"LoveNPC_Truffle": "{NPCName} さまは まさにファンギー… 本当に 楽しい方ですわ！"
		,"LoveNPC_Steampunker": "{NPCName} さまは お気に入りの ティータイムパートナー ですわ！"
		,"LoveNPC_DyeTrader": "{NPCName} さまには 適切な色のドレス選びを いつも助けていただいて おりますわ。"
		,"LoveNPC_PartyGirl": "{NPCName} さまは いつも パーティーの中心人物ですわ！"
		,"LoveNPC_Cyborg": "{NPCName} さまは 何でもご存知のようです。 クールですわね。"
		,"LoveNPC_Painter": "{NPCName} さまの アートは この場所を 明るくしてくれていますわ！"
		,"LoveNPC_WitchDoctor": "{NPCName} さまは ユニークな 洞察力を持っていて、 本当に 考えさせられますわね。"
		,"LoveNPC_Pirate": "{NPCName} さまは いつも ワクワクするような 海賊の話を してくださります。"
		,"LoveNPC_Stylist": "{NPCName} さまは 最高の ヘアアドバイスを してくださります。 トークが お上手なんです！"
		,"LoveNPC_Angler": "{NPCName} さまは とても良い子で、いつも 釣りに ご一緒させて もらっておりますわ。"
		,"LoveNPC_TaxCollector": "{NPCName} さまは 皆様に ひどく誤解されています。 とても お優しい方 なのですが。"
		,"LoveNPC_DD2Bartender": "{NPCName} さまは 全く異なる世界から いらしたとか。なんとも 興味深い ですわ！"
		,"LoveNPC_Golfer": "{NPCName} さまの ゴルフへの情熱は 私を奮い立たせますわ。"
		,"LoveNPC_BestiaryGirl": "{NPCName} さまは ペットと 遊ばせてくださります！ とっても素敵！"
		,"LoveNPC_Princess": "{NPCName} さまが 近くにおられます と少し落ち着きませんが、 本当に可愛らしくて いらっしゃいますわね！"
		,"LoveNPC_TownCat": "{NPCName} は とっても かわいらしいですわ！"
		,"LoveNPC_TownDog": "{NPCName} は 本当に 愛らしいですわね！"
		,"LoveNPC_TownBunny": "{NPCName} は なんて カワイイんでしょう！"
	}
}
